produit_id,description_produit,code_famille,description_famille
517971,GEL MAINS LAVANT BAIES,005,HYGIENE
518212,GEL DOUCEUR MAINS HAMAMELIS,005,HYGIENE
520693,FARD A PAUPIERES LAVANDE NACRE,007,MAQUILLAGE
520835,FARD A PAUPIERES ARGENT,007,MAQUILLAGE
520953,FARD A PAUPIERES BRUN ECORCE,007,MAQUILLAGE
521378,BB CREME SUBLIME 6EN1 MEDIUM,002,SOINS DU VISAGE
521407,BAUME LIQUIDE MAUVE CLAIR 07,007,MAQUILLAGE
521640,OMBRE LIFEPROOF BRONZE 03,007,MAQUILLAGE
522034,FARD A PAUPIERES BRONZE,007,MAQUILLAGE
522331,SOIN HYDRATANT ULTRA TOLERANCE,002,SOINS DU VISAGE
522387,EXFOLIANT PEAU VELOUTEE,003,SOINS DU CORPS
523097,ROUGE A LEVRES ROUGE TEINTE 16,007,MAQUILLAGE
523574,BAUME LEVRES VANILLE BLANCHE,003,SOINS DU CORPS
524347,ROUGE LEVRES NUDE 04 BRILLANT,007,MAQUILLAGE
524420,DOUCHE DOUCEUR HAMAMELIS,005,HYGIENE
525998,APRES SHAMPOOING DETOX,004,CAPILLAIRES
526619,EAU DE TOILETTE NATURE,001,PARFUMAGE
527544,ROUGE A LEVRES MARBRE NUDE,007,MAQUILLAGE
527732,POUDRE 0 DEFAUT BEIGE MAT,007,MAQUILLAGE
528371,ROUGE A LEVRES ROUGE 51 SATINE,007,MAQUILLAGE
529014,SAVON NOIX DE COCO 80GR,005,HYGIENE
529515,POUDRE LIBRE PURE LIGHT BRUN,007,MAQUILLAGE
529543,GRAND ROUGE ROUGE 116 SATINE,007,MAQUILLAGE
530022,FARD A PAUPIERES BLEU AGAVE,007,MAQUILLAGE
530035,FARD A PAUPIERES ROSE PIVOINE,007,MAQUILLAGE
530343,ROUGE A LEVRES L ELIXIR 110,007,MAQUILLAGE
531541,GEL DOUCHE CEDRE CITRON,005,HYGIENE
531636,CREME 0 DEFAUT DORE 300,007,MAQUILLAGE
532953,ROUGE A LEVRES ROUGE 53 SATINE,007,MAQUILLAGE
533974,MAXI DOUCHE HAMAMELIS,005,HYGIENE
534390,LAIT CORPS HAMAMELIS 300ML,003,SOINS DU CORPS
534876,HUILE DOUCHE VANILLE 200ML,005,HYGIENE
535711,BB CREAM MEDIUM MAT,002,SOINS DU VISAGE
535798,FARD A PAUPIERES BLEU PENSEE,007,MAQUILLAGE
536152,FEUTRE LINER BLEU CELADON 06,007,MAQUILLAGE
536248,ESSENCE ACTION ELIXIR 7 9,002,SOINS DU VISAGE
536677,GRAND ROUGE ROSE 113 SATINE,007,MAQUILLAGE
537776,GOMME SOS BOUTONS PURE SYSTEM,002,SOINS DU VISAGE
537802,CREME 0 DEFAUT BEIGE 400,007,MAQUILLAGE
538466,DEODORANT FLEUR DE COTON,005,HYGIENE
538584,EAU PARFUM NOTES D'AMOUR 30 ML,001,PARFUMAGE
538628,BAIN DOUCHE MANGUE 400ML,005,HYGIENE
539855,PURE LIGHT POUDRE LIBRE BEIGE,007,MAQUILLAGE
540375,CREME 0 DEFAUT ROSE 200,007,MAQUILLAGE
540479,BAUME CORPS VANILLE BOURBON,003,SOINS DU CORPS
540515,EAU DE PARFUM SO ELIXIR 30ML,001,PARFUMAGE
541115,FOND DE TEINT SOLEIL DORE,007,MAQUILLAGE
542061,GEL CREME HYDRATATION 24H,002,SOINS DU VISAGE
542172,FARD A PAUPIERES BLEU NIGELLE,007,MAQUILLAGE
542480,EAU DE PARFUM EVIDENCE 50ML,001,PARFUMAGE
542500,CREME LAVANTE AVOINE,005,HYGIENE
542567,EXFOLIANT CORPS ORANGER,003,SOINS DU CORPS
543071,FARD A PAUPIERES BLEU CEDRE,007,MAQUILLAGE
543618,CREME MAINS ANTI-TACHES FPS20,003,SOINS DU CORPS
543980,FARD A PAUPIERES BLEUET,007,MAQUILLAGE
544110,BAUME LIQUIDE NUDE 01,007,MAQUILLAGE
544135,SOIN ANTI-AGE APRES-SOLEIL,006,SOLAIRES
545082,STYLO REGARD ANTHRACITE 09,007,MAQUILLAGE
545248,FARD A PAUPIERES PRUNE NACRE,007,MAQUILLAGE
545308,FARD A PAUPIERES CITRON MAT,007,MAQUILLAGE
545820,LAIT PARFUME SO ELIXIR,003,SOINS DU CORPS
546715,ROUGE A LEVRES NUDE TEINTE 70,007,MAQUILLAGE
548035,SAVON AMANDE FLEUR D ORANGER,005,HYGIENE
548402,GELEE MICELLAIRE DETOXIFIANTE,002,SOINS DU VISAGE
548434,0 DEFAUT TEINT CREME BEIGE 300,007,MAQUILLAGE
549094,DUO POUDRE SOLEIL HALE MOYEN,007,MAQUILLAGE
549821,BAUME D ARGAN NOURISSANT 150ML,003,SOINS DU CORPS
551529,MASCARA LONGUEUR BLEU,007,MAQUILLAGE
552246,STYLO REGARD CUIVRE 08,007,MAQUILLAGE
552572,ROUGE LEVRES NUDE 03 BRILLANT,007,MAQUILLAGE
552636,DOUCHE 2EN1 HAMAMELIS,005,HYGIENE
553781,GEL NETTOYANT PURIFIANT,002,SOINS DU VISAGE
555223,CRAYON YEUX BLEU VOLUBILIS,007,MAQUILLAGE
555743,DEMAQUILLANT YEUX 100ML,002,SOINS DU VISAGE
555769,LAIT CORPS NOIX DE COCO 200ML,003,SOINS DU CORPS
555810,BOUCLIER BEAUTE PROTECTION,002,SOINS DU VISAGE
556778,ROUGE A LEVRES NUDE 35 SATINE,007,MAQUILLAGE
556897,FARD PAUPIERES BLEU VOLUBILIS,007,MAQUILLAGE
556945,SERUM LISSANT RIDES/ECLAT 30ML,002,SOINS DU VISAGE
557660,LAIT CREME 3 EN 1,003,SOINS DU CORPS
557769,ROUGE A LEVRES MAUVE TEINTE 72,007,MAQUILLAGE
558002,FARD A PAUPIERES VERT ANIS,007,MAQUILLAGE
559562,ROUGE A LEVRES NUDE 36 SATINE,007,MAQUILLAGE
559566,BLUSH BOIS DE ROSE,007,MAQUILLAGE
560583,EAU DE TOILETTE CLEA VAPO,001,PARFUMAGE
562851,HUILE DOUCHE LAVANDIN MURE,005,HYGIENE
562892,FARD A PAUPIERES BEIGE RACINE,007,MAQUILLAGE
564564,TOP COAT EFFET GEL TRANSPARENT,007,MAQUILLAGE
564618,FARD A PAUPIERES EUCALYPTUS,007,MAQUILLAGE
565297,GEL MATIFIANT SEBOVEGETAL 50ML,002,SOINS DU VISAGE
566429,ROUGE A LEVRES MAUVE 73 NACRE,007,MAQUILLAGE
566537,ROUGE A LEVRES ROSE 50 SATINE,007,MAQUILLAGE
566623,BB CREAM LIGHT PEAU PARFAITE,002,SOINS DU VISAGE
566769,STYLO REGARD BRUN 06,007,MAQUILLAGE
567386,GEL DOUCHE EVIDENCE HOMME,005,HYGIENE
568795,EXFOLIANT CORPS NOIX DE COCO,003,SOINS DU CORPS
569018,ROUGE VERTIGE SATINE NUDE 33,007,MAQUILLAGE
569100,ROUGE LEVRES ELIXIR ROUGE 111,007,MAQUILLAGE
570880,BAIN DOUCHE FRAMBOISE/MENTHE,005,HYGIENE
571565,CRAYON JUMBO OR GRIS NACRE 15,007,MAQUILLAGE
571591,ROUGE A LEVRES ELIXIR NUDE 101,007,MAQUILLAGE
571607,CRAYON KHOL BLANC,007,MAQUILLAGE
571714,EAU PARFUM VANILLE NOIRE 50ML,001,PARFUMAGE
572325,LAIT SO ELIXIR PURPLE 200ML,003,SOINS DU CORPS
572981,SOS RETOUCHE 5ML,007,MAQUILLAGE
573572,CREME DOUCEUR VISAGE/CORPS,002,SOINS DU VISAGE
573715,SAVON ORIENTAL HUILE D'OLIVE,005,HYGIENE
574233,BAIN DOUCHE AMANDE ORANGER,005,HYGIENE
574286,GEL DOUCHE MANGUE CORIANDRE,005,HYGIENE
574665,HUILE VEGETALE NOIX DE COCO,003,SOINS DU CORPS
574959,EXFOLIANT MARACUJA 150 ML,003,SOINS DU CORPS
576076,BLUSH ROSE PIVOINE,007,MAQUILLAGE
576762,SERUM ANTI CASSE CHEVEUX 100ML,004,CAPILLAIRES
576873,DEMAQUILLANT BLEUET 100ML,002,SOINS DU VISAGE
576962,CREME 0 DEFAUT ROSE 300,007,MAQUILLAGE
577102,APRES SHAMPOOING TEXTURISANT,004,CAPILLAIRES
577318,ROUGE A LEVRES ELIXIR ROSE 108,007,MAQUILLAGE
578934,MASCARA LONGUEUR 360 NOIR,007,MAQUILLAGE
580635,DEODORANT CITRON VERT,005,HYGIENE
581126,CRAYON JUMBO CUIVRE NACRE,007,MAQUILLAGE
581355,CRAYON LEVRES ECLAT ROSE,007,MAQUILLAGE
582056,BAIN DOUCHE NOIX DE COCO 400ML,005,HYGIENE
582618,SOIN RESTRUCTURANT JOUR ELIXIR,002,SOINS DU VISAGE
583912,FARD PAUPIERES BLANC ORCHIDEE,007,MAQUILLAGE
583915,BAUME CORPS MANDARINE,003,SOINS DU CORPS
584198,CREME 0 DEFAUT ROSE 400,007,MAQUILLAGE
584304,FARD A PAUPIERES ROSE AZALEE,007,MAQUILLAGE
584927,ROUGE VERTIGE SATINE ROSE 49,007,MAQUILLAGE
585235,BAIN DOUCHE BAIES MERVEILLES,005,HYGIENE
586728,EAU DE PARFUM INTENSE EVIDENCE,001,PARFUMAGE
586775,CREME HYDRATANTE APAISANTE,002,SOINS DU VISAGE
587984,ROUGE A LEVRES MAUVE TEINTE 08,007,MAQUILLAGE
588428,MASCARA SEXY PULP BLEU,007,MAQUILLAGE
588876,ROUGE A LEVRES ROUGE 52 SATINE,007,MAQUILLAGE
591287,GEL DOUCHE VERVEINE 200ML,005,HYGIENE
592301,RECHARGE GEL MAINS HAMAMELIS,005,HYGIENE
592980,RECHARGE GEL DOUCHE HAMAMELIS,005,HYGIENE
593573,MASQUE FLASH DESASPHYXIANT,002,SOINS DU VISAGE
593736,LAIT 2EN1 HYDRATANT 200ML,003,SOINS DU CORPS
593746,CRAYON JUMBO OR NACRE,007,MAQUILLAGE
593835,LAIT CONFORT SOLAIRE FPS30,006,SOLAIRES
593849,BAIN DOUCHE AMANDE ORANGER,005,HYGIENE
593888,CRAYON JUMBO PRUNE HORTENSIA,007,MAQUILLAGE
594080,CRAYON KHOL ANTHRACITE,007,MAQUILLAGE
594121,CREME NOURRISSANTE PIEDS 50ML,003,SOINS DU CORPS
594333,BAUME LIQUIDE ROSE FONCE 11,007,MAQUILLAGE
594482,CRAYON YEUX BRUN ECORCE,007,MAQUILLAGE
594541,GRAND ROUGE MAUVE 108 SATINE,007,MAQUILLAGE
594548,GEL DOUCHE CYPRES/PAMPLEMOUSSE,005,HYGIENE
594626,BAUME LIQUIDE ROSE CALIR 10,007,MAQUILLAGE
594628,FARD A PAUPIERES BRUN ACAJOU,007,MAQUILLAGE
594677,ROUGE VERTIGE SATINE NUDE 34,007,MAQUILLAGE
594846,POUDRE ZERO DEFAUT ROSE CLAIR,007,MAQUILLAGE
594951,SOIN REPULPANT JOUR VEGETAL,002,SOINS DU VISAGE
595017,ROUGE A LEVRES MAUVE 41 SATINE,007,MAQUILLAGE
595301,MASCARA SEXY PULP NOIR EXTREME,007,MAQUILLAGE
595718,APRES SHAMPOOING BRILLANCE,004,CAPILLAIRES
595724,2EN1 NETTOYANT DESINCRUSTANT,002,SOINS DU VISAGE
595883,SOIN REGENERANT ANTI TACHES,002,SOINS DU VISAGE
596316,ROUGE A LEVRES ROSE 10,007,MAQUILLAGE
596416,MASQUE ACTIVATEUR D ECLAT,004,CAPILLAIRES
596474,BAUME CORPS FLEUR D ORANGER,003,SOINS DU CORPS
596597,NETTOYANT EXFOLIANT QUOTIDIEN,002,SOINS DU VISAGE
619284,EAU DE PARFUM EVIDENCE 50ML,001,PARFUMAGE
621135,ELIXIR MASSAGE HAMMAM,003,SOINS DU CORPS
696651,FOND TEINT BEIGE TEINT CLAIR,007,MAQUILLAGE
696700,FOND TEINT ROSE TEINT MEDIUM,007,MAQUILLAGE
696735,FOND TEINT BEIGE TEINT MEDIUM,007,MAQUILLAGE
698423,CRAYON SOURCILS BLOND,007,MAQUILLAGE
698719,CRAYON SOURCILS CENDRE,007,MAQUILLAGE
698734,CRAYON SOURCILS CHATAIN,007,MAQUILLAGE
698747,CRAYON SOURCILS BRUN,007,MAQUILLAGE
817449,EAU TOILETTE FLOWERPARTY 50ML,001,PARFUMAGE
823056,PALETTE COULEUR VEGETALE SMOKY,007,MAQUILLAGE
869814,MASCARA WATERPROOF NOIR,007,MAQUILLAGE
873897,STYLO REGARD WATERPROOF NOIR,007,MAQUILLAGE
884518,GEL GLACE ANTI-FATIGUE PIEDS,003,SOINS DU CORPS
885836,GOMMAGE PIEDS LISSES,003,SOINS DU CORPS
898499,CRAYON LEVRES ROUGE AQUARELLE,007,MAQUILLAGE
898513,BAIN DOUCHE MAGNOLIA THE BLANC,005,HYGIENE
898533,MASCARA SOURCILS CENDRE,007,MAQUILLAGE
898720,CRAYON LEVRES ZERO DEFAUT,007,MAQUILLAGE
898823,CRAYON YEUX VIOLET IRIS,007,MAQUILLAGE
898832,DUO POUDRE SOLEIL HALE LEGER,007,MAQUILLAGE
898836,EXFOLIANT VANILLE BOURBON,003,SOINS DU CORPS
898864,EAU DE PARFUM SO ELIXIR 50ML,001,PARFUMAGE
898869,BAIN DOUCHE PASSION GINGEMBRE,005,HYGIENE
899427,GEL NETTOYANT PURIFIANT 125ML,002,SOINS DU VISAGE
899471,DEODORANT FRAICHEUR GRENADE,005,HYGIENE
908425,BAUME REPARATEUR PIEDS KARITE,003,SOINS DU CORPS
912480,LOTION CLARIFIANTE 150ML,002,SOINS DU VISAGE
915021,EAU PARFUM MOMENT DE BONHEUR,001,PARFUMAGE
920127,CRAYON YEUX PRUNE PIVOINE,007,MAQUILLAGE
920319,MASCARA LONGUEUR NOIR,007,MAQUILLAGE
922414,HUILE DE DOUCHE HAMMAM,005,HYGIENE
927803,MASQUE DESINCRUSTANT CLEAN,002,SOINS DU VISAGE
957274,MASCARA VOLUME SEXY PULP NOIR,007,MAQUILLAGE
963641,GEL DOUCHE ROSE FRAICHE,005,HYGIENE
963645,GEL DOUCHE LILAS MAUVE 200ML,005,HYGIENE
963677,LAIT CORPS LILAS MAUVE 200ML,003,SOINS DU CORPS
963680,LAIT CORPS ROSE FRAICHE,003,SOINS DU CORPS
975487,EAU TOILETTE MONOI TAHITI,001,PARFUMAGE
999341,STYLO LEVRES 0 DEFAUT INCOLORE,007,MAQUILLAGE
999351,STYLO LEVRES MAUVE BOISE,007,MAQUILLAGE
999356,STYLO LEVRES ROUGE FONCE,007,MAQUILLAGE
999363,STYLO LEVRES ROUGE,007,MAQUILLAGE
999367,STYLO LEVRES BEIGE,007,MAQUILLAGE
999373,STYLO LEVRES BOIS DE ROSE,007,MAQUILLAGE
1008710,EAU DE TOILETTE AMBRE NOIR,001,PARFUMAGE
1008726,EAU TOILETTE AMBRE NOIR 50ML,001,PARFUMAGE
1027225,SHAMPOOING NUTRI REPARATEUR,004,CAPILLAIRES
1027231,APRES-SHAMPOOING REPARATEUR,004,CAPILLAIRES
1027233,HUILE REPARATRICE CHEVEUX,004,CAPILLAIRES
1027246,SHAMPOOING TEXTURISANT VOLUME,004,CAPILLAIRES
1027256,SHAMPOOING PURIFIANT 300 ML,004,CAPILLAIRES
1027262,APRES-SHAMPOOING NUTRI-SOYEUX,004,CAPILLAIRES
1027594,SHAMPOOING PROTECTION/ECLAT,004,CAPILLAIRES
1027612,APRES-SHAMPOOING PROTECTION,004,CAPILLAIRES
1027614,SHAMPOOING DOUX HAMAMELIS,004,CAPILLAIRES
1028069,EAU TOILETTE CERISIER EN FLEUR,001,PARFUMAGE
1032477,GEL DOUCHE AMBRE NOIR 200ML,005,HYGIENE
1034964,BAUME APRES RASAGE SENSITIVE,002,SOINS DU VISAGE
1035001,GEL DOUCHE FRAICHEUR MENTHE,005,HYGIENE
1035070,GEL DOUCHE FRAICHEUR ALOE,005,HYGIENE
1035836,GEL DOUCHE MUGUET EN FLEURS,005,HYGIENE
1035840,LAIT CORPS MUGUET EN FLEURS,003,SOINS DU CORPS
1043802,HUILE SECHE MONOI DE TAHITI,003,SOINS DU CORPS
1045446,EAU HYDRATANTE PARFUMEE LAGONS,003,SOINS DU CORPS
1045455,HUILE TIARE MONOI DE TAHITI,003,SOINS DU CORPS
1045650,HUILE SECHE PRECIEUSE MONOI,003,SOINS DU CORPS
1054201,LAIT CORPS CERISIER EN FLEURS,003,SOINS DU CORPS
1054226,SOIN STOP PURE SYSTEME 4 EN 1,002,SOINS DU VISAGE
1054242,GEL DOUCHE CERISIER EN FLEURS,005,HYGIENE
1058416,SPRAY SCULPTANT BOUCLES,004,CAPILLAIRES
1082270,MASQUE PURETE SEBOVEGETAL,002,SOINS DU VISAGE
1083864,GEL DEFATIGANT ENERGIE HOMME,002,SOINS DU VISAGE
1083915,SOIN ANTI-AGE ENERGIE HOMME,002,SOINS DU VISAGE
1084784,"EYE LINER NOIR 2,5 ML",007,MAQUILLAGE
1084803,EYE LINER EMERAUDE,007,MAQUILLAGE
1084804,EYE LINER NOIR SCINTILLANT,007,MAQUILLAGE
1084811,EYE LINER SAPHIR,007,MAQUILLAGE
1084813,EYE LINER BRUN,007,MAQUILLAGE
1084814,EYE LINER PRUNE,007,MAQUILLAGE
1085834,BAUME LEVRES FRAISE,003,SOINS DU CORPS
1085840,BAUME LEVRES KARITE,003,SOINS DU CORPS
1085850,BAUME LEVRES CERISE,003,SOINS DU CORPS
1085858,BAUME LEVRES FRAMBOISE,003,SOINS DU CORPS
1085859,BAUME LEVRES VANILLE,003,SOINS DU CORPS
1085861,BAUME LEVRES NOIX DE COCO,003,SOINS DU CORPS
1085884,BAUME LEVRES MACADAMIA,003,SOINS DU CORPS
1086974,EAU MICELLAIRE PURIFIANTE 2EN1,002,SOINS DU VISAGE
1088112,STYLO RAYONNANT ROSE,007,MAQUILLAGE
1088132,STYLO RAYONNANT BEIGE 02,007,MAQUILLAGE
1088135,STYLO RAYONNANT DORE 03,007,MAQUILLAGE
1089078,EAU MOMENT DE BONHEUR 50ML,001,PARFUMAGE
1090741,SHAMPOOING BRILLANCE 300ML,004,CAPILLAIRES
1092349,EAU TOILETTE LILAS MAUVE 100ML,001,PARFUMAGE
1092886,EAU DE TOILETTE ROSE FRAICHE,001,PARFUMAGE
1092939,EAU DE TOILETTE MUGUET 100ML,001,PARFUMAGE
1100762,TONIQUE HYDRATANT 200ML,002,SOINS DU VISAGE
1100765,EAU HYDRATANTE VEGETALE 2 EN 1,002,SOINS DU VISAGE
1100850,NUTRI LAIT DEMAQUILLANT 200ML,002,SOINS DU VISAGE
1106966,SHAMPOOING ANTI-PELLICULAIRE,004,CAPILLAIRES
1107348,EAU DE TOILETTE HOGGAR 75ML,001,PARFUMAGE
1112342,CURE ANTI-AGE GLOBAL,002,SOINS DU VISAGE
1112913,GEL DOUCHE NOTES D AMOUR 200ML,005,HYGIENE
1112931,LAIT CORPS NOTES D AMOUR 200ML,003,SOINS DU CORPS
1119964,GEL MOUSSANT CHEVREFEUILLE,005,HYGIENE
1121922,LOTION TONIQUE PERFECTRICE,002,SOINS DU VISAGE
1121924,LAIT DEMAQUILLANT LISSANT,002,SOINS DU VISAGE
1122661,MASQUE HYDRA VEGETAL INTENSE,002,SOINS DU VISAGE
1122702,SOIN LISSANT JOUR 50 ML,002,SOINS DU VISAGE
1122709,SOIN REPULPANT NUIT 50ML,002,SOINS DU VISAGE
1122718,SOIN REPULPANT JOUR 50ML,002,SOINS DU VISAGE
1123361,SOIN RESCULPANT V NUIT 50ML,002,SOINS DU VISAGE
1123392,ROLL ON REGARD ILLUMINATEUR,002,SOINS DU VISAGE
1125764,SOIN RESCULPANT V JOUR 50ML,002,SOINS DU VISAGE
1125766,SOIN REHAUSSEUR REGARD 14ML,002,SOINS DU VISAGE
1128252,COMBLEUR CIBLE REGARD/LEVRES,002,SOINS DU VISAGE
1128258,SERUM ULTRA-REPULPANT,002,SOINS DU VISAGE
1128315,SERUM ULTRA RESCULPTANT,002,SOINS DU VISAGE
1133642,CORRECTEUR ANTI-TACHES,002,SOINS DU VISAGE
1137085,EAU DE TOILETTE THE VERT,001,PARFUMAGE
1137820,GEL DOUCHE THE VERT,005,HYGIENE
1137847,LAIT CORPS THE VERT,003,SOINS DU CORPS
1139264,EAU TOILETTE CEDRE/CITRON VERT,001,PARFUMAGE
1139562,EAU DE TOILETTE BOIS DE GAIAC,001,PARFUMAGE
1139583,EAU CYPRES/PAMPLEMOUSSE,001,PARFUMAGE
1143182,FOND DE TEINT 0DEFAUT BRUN 800,007,MAQUILLAGE
1143184,FOND DE TEINT 0DEFAUT BRUN 700,007,MAQUILLAGE
1143185,FOND TEINT 0 DEFAUT ROSE 100,007,MAQUILLAGE
1143186,STICK CORRECTEUR BEIGE MAT,007,MAQUILLAGE
1143187,STICK CORRECTEUR BRUN CLAIR,007,MAQUILLAGE
1143188,STICK CORRECTEUR BRUN MAT,007,MAQUILLAGE
1143189,STICK CORRECTEUR ROSE MOYEN,007,MAQUILLAGE
1143190,FOND TEINT 0 DEFAUT DORE 200,007,MAQUILLAGE
1143191,TEINT FLUIDE 0DEFAUT BEIGE 200,007,MAQUILLAGE
1143192,FOND TEINT 0 DEFAUT DORE 300,007,MAQUILLAGE
1143194,STICK CORRECTEUR ROSE CLAIR,007,MAQUILLAGE
1143195,FOND DE TEINT 0DEFAUT ROSE 400,007,MAQUILLAGE
1143197,FOND TEINT 0 DEFAUT BEIGE 100,007,MAQUILLAGE
1143198,TEINT FLUIDE 0DEFAUT BEIGE 300,007,MAQUILLAGE
1143201,FOND TEINT 0 DEFAUT DORE 400,007,MAQUILLAGE
1143202,FOND DE TEINT 0DEFAUT BRUN 500,007,MAQUILLAGE
1143203,FOND TEINT 0 DEFAUT ROSE 200,007,MAQUILLAGE
1143204,STICK CORRECTEUR BEIGE CLAIR,007,MAQUILLAGE
1143206,FOND TEINT 0 DEFAUT DORE 100,007,MAQUILLAGE
1143207,FOND DE TEINT 0DEFAUT ROSE 300,007,MAQUILLAGE
1143211,FOND TEINT 0 DEFAUT BEIGE 400,007,MAQUILLAGE
1143212,FOND TEINT 0 DEFAUT BRUN 600,007,MAQUILLAGE
1143213,STICK CORRECTEUR DORE MOYEN,007,MAQUILLAGE
1143214,STICK CORRECTEUR BEIGE MOYEN,007,MAQUILLAGE
1147069,BB CREME FPS20 SERUM VEGETAL,002,SOINS DU VISAGE
1147827,SERUM ANTI AGE GLOBAL,002,SOINS DU VISAGE
1150763,CREME FONDAMENTALE PEAU SECHE,002,SOINS DU VISAGE
1150794,CREME JOUR ANTI-AGE GLOBAL,002,SOINS DU VISAGE
1150809,CREME NUIT ANTI-AGE 50ML,002,SOINS DU VISAGE
1151160,CREME REGARD ANTI-AGE 15ML,002,SOINS DU VISAGE
1151671,HUILE PROTECTRICE,004,CAPILLAIRES
1153142,FOND DE TEINT LIGHT BEIGE 100,007,MAQUILLAGE
1153168,FOND DE TEINT LIGHT BEIGE 200,007,MAQUILLAGE
1153173,FOND DE TEINT LIGHT BEIGE 300,007,MAQUILLAGE
1153186,FOND DE TEINT LIGHT BEIGE400,007,MAQUILLAGE
1153381,VERNIS A ONGLES ROSE AZALEE,007,MAQUILLAGE
1153388,VERNIS A ONGLES IRIS 5ML,007,MAQUILLAGE
1153391,VERNIS A ONGLES BAIE ROSE,007,MAQUILLAGE
1153392,VERNIS A ONGLES PIVOINE 5ML,007,MAQUILLAGE
1153393,VERNIS A ONGLES ROSE CAMELIA,007,MAQUILLAGE
1153394,VERNIS A ONGLES BOIS DE BAHIA,007,MAQUILLAGE
1153396,VERNIS A ONGLES LILAS 5ML,007,MAQUILLAGE
1153397,VERNIS A ONGLES MAGNOLIA 5ML,007,MAQUILLAGE
1153398,VERNIS A ONGLES ECORCE,007,MAQUILLAGE
1153401,VERNIS A ONGLES FIGUE 5ML,007,MAQUILLAGE
1153403,VERNIS A ONGLES ROSE DALHIA,007,MAQUILLAGE
1153406,VERNIS A ONGLES GARANCE 5ML,007,MAQUILLAGE
1153413,VERNIS A ONGLES ROSE HORTENSIA,007,MAQUILLAGE
1153414,VERNIS A ONGLES COQUELICOT 5ML,007,MAQUILLAGE
1153777,VERNIS A ONGLES MELON NACRE,007,MAQUILLAGE
1153781,VERNIS A ONGLES CITRON 5ML,007,MAQUILLAGE
1153787,VERNIS A ONGLES CERISE NACREE,007,MAQUILLAGE
1153788,VERNIS A ONGLES CAPUCINE 5ML,007,MAQUILLAGE
1153797,VERNIS A ONGLES PIVOINE NACREE,007,MAQUILLAGE
1153801,VERNIS A ONGLES MAGNOLIA NACRE,007,MAQUILLAGE
1153802,VERNIS ONGLES ARGENT PAILLETE,007,MAQUILLAGE
1153806,VERNIS A ONGLES OR PAILLETE,007,MAQUILLAGE
1153807,VERNIS A ONGLES CERISE NOIRE,007,MAQUILLAGE
1153809,VERNIS A ONGLES BLEU PENSEE,007,MAQUILLAGE
1153815,VERNIS A ONGLES NOIR EBENE,007,MAQUILLAGE
1153816,VERNIS A ONGLES MENTHE 5ML,007,MAQUILLAGE
1153819,VERNIS A ONGLES ORANGE COSMOS,007,MAQUILLAGE
1153820,VERNIS A ONGLES BLEU NIGELLE,007,MAQUILLAGE
1153823,VERNIS A ONGLES BLEU VOLUBILIS,007,MAQUILLAGE
1153826,VERNIS A ONGLES EUCALYPTUS 5ML,007,MAQUILLAGE
1153828,VERNIS A ONGLES OR METALLISE,007,MAQUILLAGE
1153839,VERNIS A ONGLES BOIS NACRE,007,MAQUILLAGE
1153840,VERNIS A ONGLES VERT AGAVE 5ML,007,MAQUILLAGE
1153841,VERNIS A ONGLES MELON 5ML,007,MAQUILLAGE
1153842,VERNIS A ONGLES GRIS ARMOISE,007,MAQUILLAGE
1153850,VERNIS ARGENT METALLISE 5ML,007,MAQUILLAGE
1153854,VERNIS A ONGLES HIBISCUS ROUGE,007,MAQUILLAGE
1153866,VERNIS A ONGLES CAMELIA NACRE,007,MAQUILLAGE
1154680,TEINT RAYONNANT ROSE 300,007,MAQUILLAGE
1154682,TEINT RAYONNANT BEIGE 200,007,MAQUILLAGE
1154695,TEINT RAYONNANT DORE 300,007,MAQUILLAGE
1154697,TEINT RAYONNANT ROSE 000,007,MAQUILLAGE
1154698,TEINT RAYONNANT BEIGE 400,007,MAQUILLAGE
1154708,TEINT RAYONNANT ROSE 100,007,MAQUILLAGE
1154710,TEINT RAYONNANT BEIGE 100,007,MAQUILLAGE
1154711,TEINT RAYONNANT BEIGE 300,007,MAQUILLAGE
1154712,TEINT RAYONNANT BEIGE 000,007,MAQUILLAGE
1154714,TEINT RAYONNANT ROSE 200,007,MAQUILLAGE
1155060,STYLO REGARD WATERPROOF VERT,007,MAQUILLAGE
1155067,STYLO WATERPROOF TURQUOISE,007,MAQUILLAGE
1155076,STYLO REGARD GRIS ANTHRACYTE,007,MAQUILLAGE
1155844,VERNIS ONGLES LAQUE FRAMBOISE,007,MAQUILLAGE
1155854,VERNIS A ONGLES LAQUE ROSE VIF,007,MAQUILLAGE
1155860,VERNIS LAQUE ORANGE SANGUINE,007,MAQUILLAGE
1155862,VERNIS LAQUE BORDEAUX EXQUIS,007,MAQUILLAGE
1155866,VERNIS LAQUE PRUNE MYSTERIEUX,007,MAQUILLAGE
1155870,VERNIS A ONGLES BEIGE RADIEUX,007,MAQUILLAGE
1155889,VERNIS LAQUE AUBERGINE PROFOND,007,MAQUILLAGE
1155891,VERNIS A ONGLES LAQUE TAUPE,007,MAQUILLAGE
1155893,VERNIS LAQUE ROUGE IMPERIAL,007,MAQUILLAGE
1155895,VERNIS ONGLES LAQUE ROSE PERLE,007,MAQUILLAGE
1157352,GEL DOUCHE COMME UNE EVIDENCE,005,HYGIENE
1157354,LAIT PARFUME EVIDENCE 200ML,003,SOINS DU CORPS
1157959,CREME ANTI-ROUGEURS POT 50ML,002,SOINS DU VISAGE
1157969,CREME HYDRATANTE APAISANTE,002,SOINS DU VISAGE
1158470,LAIT DEMAQUILLANT APAISANT,002,SOINS DU VISAGE
1158502,BRUME VEGETALE APAISANTE,002,SOINS DU VISAGE
1158518,DEODORANT COMME UNE EVIDENCE,005,HYGIENE
1158521,EAU MICELLAIRE APAISANTE 200ML,002,SOINS DU VISAGE
1159639,SOIN CONFORT CIBLE YEUX,002,SOINS DU VISAGE
1159863,GOUTTE SECHAGE EXPRESS 5ML,007,MAQUILLAGE
1159888,TOP COAT GLOSS TRANSPARENT 5ML,007,MAQUILLAGE
1159891,BASE SOS ONGLES RENFORCES,007,MAQUILLAGE
1162189,BAIN DISSOLVANT EXTRA 75ML,007,MAQUILLAGE
1162201,CRAYON LEVRES ROSE SORBET,007,MAQUILLAGE
1162224,CRAYON LEVRES ROSE CLAIR,007,MAQUILLAGE
1162226,DISSOLVANT 100ML,007,MAQUILLAGE
1162227,STYLO DISSOLVANT 3ML,007,MAQUILLAGE
1162230,CRAYON LEVRES SABLE DORE,007,MAQUILLAGE
1162967,BASE PAUPIERES FIXATRICE,007,MAQUILLAGE
1163467,CREME DOUCHE NOIX DE MACADAMIA,005,HYGIENE
1164562,AMPOULES EXPRESS BEAUTE,002,SOINS DU VISAGE
1169410,ELIXIR D HUILE 100% VEGETALE,007,MAQUILLAGE
1172300,PARFUM SO ELIXIR PURPLE 30ML,001,PARFUMAGE
1172318,PARFUM SO ELIXIR PURPLE 50ML,001,PARFUMAGE
1172349,EAU DE TOILETTE SO ELIXIR 50ML,001,PARFUMAGE
1173164,DEODORANT LAVANDIN DE PROVENCE,005,HYGIENE
1173654,GEL DOUCHE SO ELIXIR PURPLE,005,HYGIENE
1173664,DEODORANT FLEUR DE LOTUS 50ML,005,HYGIENE
1173766,DEODORANT THE VERT DE CHINE,005,HYGIENE
1174149,GEL DOUCHE SO ELIXIR 200ML,005,HYGIENE
1174160,LAIT SO ELIXIR 200ML,003,SOINS DU CORPS
1174171,GEL DOUCHE PARFUME SO ELIXIR,005,HYGIENE
1174656,GEL CREME O DEFAUT SEBOVEGETAL,002,SOINS DU VISAGE
1174673,SOIN VEGETAL RESURFACANT 30ML,002,SOINS DU VISAGE
1176498,CRAYON YEUX ROSE FUCHSIA,007,MAQUILLAGE
1176502,CRAYON YEUX BLEU PARADIS,007,MAQUILLAGE
1176506,CRAYON YEUX VEGETALE BAMBOU,007,MAQUILLAGE
1176507,CRAYON YEUX EUCALYPTUS,007,MAQUILLAGE
1176508,CRAYON YEUX BLEU PENSEE,007,MAQUILLAGE
1176524,CRAYON YEUX BLEU AGAVE,007,MAQUILLAGE
1176526,CRAYON YEUX GRIS ARMOISE,007,MAQUILLAGE
1176532,CRAYON YEUX NOIR EBENE,007,MAQUILLAGE
1177979,GOMMAGE PURIFIANT SEBOVEGAL,002,SOINS DU VISAGE
1179262,MASCARA LONGUEUR BRUN,007,MAQUILLAGE
1179270,MASCARA LONGUEUR NOIR,007,MAQUILLAGE
1179278,MASCARA LONGUEUR ANTHRACITE,007,MAQUILLAGE
1180161,BAIN LAVANDIN MURE 400ML,005,HYGIENE
1181159,SAVON LAVANDIN MURE,005,HYGIENE
1184302,BAIN DOUCHE MANGUE CORIANDRE,005,HYGIENE
1184660,EAU PARFUN COMME UNE EVIDENCE,001,PARFUMAGE
1186202,SAVON MANGUE CORIANDRE 80GR,005,HYGIENE
1186228,SAVON FRAMBOISE MENTHE 80GR,005,HYGIENE
1186231,SAVON VANILLE BOURBON 80GR,005,HYGIENE
1190677,GEL GOMMANT CITRON BASILIC,005,HYGIENE
1190679,HUILE DE DOUCHE NOIX DE COCO,005,HYGIENE
1190681,CRAYON KHOL NOIR,007,MAQUILLAGE
1190682,GEL DOUCHE GOMMANT MANGUE,005,HYGIENE
1190685,GEL DOUCHE FRAMBOISE MENTHE,005,HYGIENE
1190918,BAIN DOUCHE VANILLE BOURBON,005,HYGIENE
1190930,BAIN FRAMBOISE MENTHE 200ML,005,HYGIENE
1190934,CRAYON KHOL VERT,007,MAQUILLAGE
1190935,HUILE AMANDE FLEUR D ORANGER,005,HYGIENE
1190937,CRAYON KHOL BRUN,007,MAQUILLAGE
1190945,CRAYON KHOL PRUNE,007,MAQUILLAGE
1191128,BAIN DOUCHE LAVANDIN MURE,005,HYGIENE
1191134,BAIN DOUCHE MANGUE CORIANDRE,005,HYGIENE
1192669,MOUSSE ANTI-REPOUSSE,003,SOINS DU CORPS
1192674,GOMMAGE GOURMAND ABRICOT,002,SOINS DU VISAGE
1192678,SOIN HYDRATANT 3EN1 SENSITIVE,002,SOINS DU VISAGE
1193737,EAU PARFUM COMME UNE EVIDENCE,001,PARFUMAGE
1195526,HUILE CORPS MASSAGE VANILLE,003,SOINS DU CORPS
1195810,LAIT VANILLE BOURBON 390ML,003,SOINS DU CORPS
1195835,MASQUE GLACE CRANBERRY 50ML,002,SOINS DU VISAGE
1195837,LAIT CORPS VANILLE BOURBON,003,SOINS DU CORPS
1197522,MASQUE RESCULPTANT VEGETAL,002,SOINS DU VISAGE
1199707,HUILE FLEUR ORANGER LAVANDE,003,SOINS DU CORPS
1199715,SHAMPOOING VEGETAL ANTI CHUTE,004,CAPILLAIRES
1199719,HUILE MANDARINE CITRON CEDRE,003,SOINS DU CORPS
1200013,EAU DE TOILETTE FLEUR ORANGER,001,PARFUMAGE
1200016,EAU DE TOILETTE MANDARINE,001,PARFUMAGE
1200018,EAU DE TOILETTE NOIX DE COCO,001,PARFUMAGE
1200746,LAIT MANGUE CORIANDRE 200ML,003,SOINS DU CORPS
1200780,LAIT CORPS LAVANDIN MURE 200ML,003,SOINS DU CORPS
1201868,ELIXIR DE BEAUTE RICHE CREME,002,SOINS DU VISAGE
1202609,EAU DE TOILETTE VERVEINE 100ML,001,PARFUMAGE
1202964,LAIT NOIX COCO 390ML,003,SOINS DU CORPS
1202966,LAIT FRAMBOISE MENTHE POIVREE,003,SOINS DU CORPS
1202974,LAIT AMANDE FLEUR D ORANGER,003,SOINS DU CORPS
1203712,STYLO REDUCTEUR RIDES/FERMETE,002,SOINS DU VISAGE
1203731,ANTI-RIDES JOUR RICHE CREME,002,SOINS DU VISAGE
1203743,SOIN REGENERANT RICHE CREME,002,SOINS DU VISAGE
1203752,ANTI-RIDES YEUX RICHE CREME,002,SOINS DU VISAGE
1204027,ANTI-RIDES RICHE CREME NUIT,002,SOINS DU VISAGE
1204029,EAU TOILETTE CUIR VETIVER 50ML,001,PARFUMAGE
1204041,LAIT CORPS RICHE CREME,003,SOINS DU CORPS
1204357,EAU DE TOILETTE FLEUR ORANGER,001,PARFUMAGE
1204388,EAU TOILETTE MANDARINE CITRON,001,PARFUMAGE
1204398,EAU DE TOILETTE NOIX DE COCO,001,PARFUMAGE
1205717,EAU DE TOILETTE CUIR VETIVER,001,PARFUMAGE
1206322,SOIN ANTI-AGE SOLAIRE FPS50+,006,SOLAIRES
1207359,HUILE SOIN SOUS LA DOUCHE,003,SOINS DU CORPS
1207360,LAIT RELIPIDANT 200ML,003,SOINS DU CORPS
1207367,GOMMAGE VEGETAL 150ML,003,SOINS DU CORPS
1207380,LAIT REHYDRATANT 200ML,003,SOINS DU CORPS
1207394,GEL FRAICHEUR JAMBES LEGERES,003,SOINS DU CORPS
1207641,LAIT REHYDRATANT 390 ML,003,SOINS DU CORPS
1207698,CRAYON SOURCILS ULTRA-BRUN,007,MAQUILLAGE
1209411,LAIT RELIPIDANT 390ML,003,SOINS DU CORPS
1209598,LAIT EN SPRAY SOLAIRE FPS15,006,SOLAIRES
1209600,LAIT EN SPRAY SOLAIRE FPS30,006,SOLAIRES
1209605,BRUME ACTIVATRICE BRONZAGE,006,SOLAIRES
1209619,SPRAY INVISIBLE SOLAIRE FPS30,006,SOLAIRES
1209626,LAIT CORPS VERVEINE 200ML,003,SOINS DU CORPS
1209630,LAIT CONFORT SOLAIRE FPS50+,006,SOLAIRES
1209877,BB CREAM MEDIUM PEAU PARFAITE,002,SOINS DU VISAGE
1210306,SOIN ANTI-AGE SOLAIRE FPS30,006,SOLAIRES
1211278,HUILE SUBLIMATRICE SOLAIRE,006,SOLAIRES
1211291,LAIT REPARATEUR APRES SOLEIL,006,SOLAIRES
1211293,SHAMPOOING DOUCHE CUIR VETIVER,005,HYGIENE
1213899,SPRAY INVISIBLE SOLAIRE FPS15,006,SOLAIRES
1214230,MOUSSE A RASER SENSITIVE HOMME,005,HYGIENE
1214437,CRAYON LEVRES ROUGE FLAMBOYANT,007,MAQUILLAGE
1214438,CRAYON LEVRES POURPRE LUMINEUX,007,MAQUILLAGE
1214439,CRAYON A LEVRES ROUGE BORDEAUX,007,MAQUILLAGE
1214445,CRAYON LEVRES ECLAT MAUVE,007,MAQUILLAGE
1216062,LAIT CONFORT SOLAIRE FPS20,006,SOLAIRES
1216086,HUILE SUBLIMATRICE FPS30,006,SOLAIRES
1216446,SHAMPOOING DOUCHE DES LAGONS,005,HYGIENE
1218433,HUILE DEMAQUILLANTE MICELLAIRE,002,SOINS DU VISAGE
1218647,EAU DE TOILETTE NOTES D AMOUR,001,PARFUMAGE
1221227,EAU MICELLAIRE APAISANTE 390ML,002,SOINS DU VISAGE
1221228,MASCARA VOLUME VERTIGE NOIR,007,MAQUILLAGE
1221229,EAU MICELLAIRE HYDRATANTE,002,SOINS DU VISAGE
1221230,EAU MICELLAIRE PURIFIANTE,002,SOINS DU VISAGE
1221237,LAIT DEMAQUILLANT APAISANT,002,SOINS DU VISAGE
1225102,CURE STIMULANTE ANTI-CHUTE,004,CAPILLAIRES
1227670,MASCARA LONGUEUR BRUN,007,MAQUILLAGE
1230863,GOMMAGE A MIXER,002,SOINS DU VISAGE
1232016,EAU PARFUM SECRETS D ESSENCES,001,PARFUMAGE
1232022,EAU PARFUM SECRETS D ESSENCES,001,PARFUMAGE
1233378,BAUME LIQUIDE ROSE LEGER 09,007,MAQUILLAGE
1233380,BAUME LIQUIDE NUDE BEIGE 05,007,MAQUILLAGE
1233388,BAUME LIQUIDE NUDE ROSE 03,007,MAQUILLAGE
1233391,BAUME LIQUIDE MAUVE FONCE 08,007,MAQUILLAGE
1234418,FARD A PAUPIERES ROSE DAHLIA,007,MAQUILLAGE
1234423,FARD A PAUPIERES ABRICOT NACRE,007,MAQUILLAGE
1234425,FARD A PAUPIERES GINGEMBRE,007,MAQUILLAGE
1234426,FARD A PAUPIERES NOIR EBENE,007,MAQUILLAGE
1234427,FARD A PAUPIERES MELON NACRE,007,MAQUILLAGE
1234431,FARD A PAUPIERES BRUN CAFE MAT,007,MAQUILLAGE
1234432,FARD A PAUPIERES ROSE THE MAT,007,MAQUILLAGE
1234434,FARD A PAUPIERES TERRE FUMEE,007,MAQUILLAGE
1234435,FARD A PAUPIERES BOIS DE BAHIA,007,MAQUILLAGE
1234436,FARD A PAUPIERES GRIS ARMOISE,007,MAQUILLAGE
1234437,FARD A PAUPIERES BEIGE LIN,007,MAQUILLAGE
1234440,FARD A PAUPIERES EDELWEISS,007,MAQUILLAGE
1234444,FARD A PAUPIERES ROSE CALLAS,007,MAQUILLAGE
1234445,FARD A PAUPIERES LILAS NACRE,007,MAQUILLAGE
1234451,FARD A PAUPIERES CHEVREFEUILLE,007,MAQUILLAGE
1234457,FARD A PAUPIERES ORANGE COSMOS,007,MAQUILLAGE
1234459,FARD A PAUPIERES BOIS TAUPE,007,MAQUILLAGE
1234463,FARD A PAUPIERES BAIE ROSE,007,MAQUILLAGE
1234467,FARD A PAUPIERES ROSE CAMELIA,007,MAQUILLAGE
1234468,FARD A PAUPIERES GRANIT NACRE,007,MAQUILLAGE
1234469,FARD A PAUPIERES BLEU PARADIS,007,MAQUILLAGE
1234470,FARD A PAUPIERES FIGUE MAT,007,MAQUILLAGE
1234471,FARD A PAUPIERES BRUN CACAO,007,MAQUILLAGE
1234472,FARD A PAUPIERES PECHE NACRE,007,MAQUILLAGE
1234473,FARD A PAUPIERES MAGNOLIA MAT,007,MAQUILLAGE
1234474,FARD A PAUPIERES ROSE BOISE,007,MAQUILLAGE
1234490,FARD A PAUPIERES REGLISSE,007,MAQUILLAGE
1234493,FARD PAUPIERES VIOLET IRIS MAT,007,MAQUILLAGE
1234498,FARD A PAUPIERES ROSE PETALE,007,MAQUILLAGE
1235612,FARD A PAUPIERES OR JAUNE,007,MAQUILLAGE
1235613,FARD A PAUPIERES BLEU CHARDON,007,MAQUILLAGE
1235617,FARD A PAUPIERES BAMBOU NACRE,007,MAQUILLAGE
1235619,FARD A PAUPIERES OR ROSE,007,MAQUILLAGE
1235621,FARD A PAUPIERES LICHEN NACRE,007,MAQUILLAGE
1235622,FARD A PAUPIERES ETAIN,007,MAQUILLAGE
1235624,FARD A PAUPIERES MORDORE,007,MAQUILLAGE
1235627,FARD A PAUPIERES VERT FORET,007,MAQUILLAGE
1235628,FARD A PAUPIERES OR BLANC,007,MAQUILLAGE
1237229,PURE LIGHT POUDRE LIBRE DORE,007,MAQUILLAGE
1237240,PURE LIGHT POUDRE LIBRE BRUN,007,MAQUILLAGE
1237244,PURE LIGHT POUDRE LIBRE ROSE,007,MAQUILLAGE
1237410,DEMAQUILLANT PUR BLEUET 100ML,002,SOINS DU VISAGE
1237427,DEMAQUILLANT PUR BLEUET 200ML,002,SOINS DU VISAGE
1237429,CREME LAVANTE SOIN CAPILLAIRE,004,CAPILLAIRES
1238204,MASCARA VOLUME 360 BRUN,007,MAQUILLAGE
1238205,MASCARA VOLUME ELIXIR NOIR,007,MAQUILLAGE
1238207,MASCARA VOLUME ELIXIR BRUN,007,MAQUILLAGE
1238209,MASCARA VERTIGE VOLUME BLEU,007,MAQUILLAGE
1238210,MASCARA VOLUME 360 BLEU,007,MAQUILLAGE
1238216,MASCARA VERTIGE VOLUME NOIR,007,MAQUILLAGE
1238217,MASCARA VOLUME 360 NOIR,007,MAQUILLAGE
1238219,MASCARA VERTIGE VOLUME BRUN,007,MAQUILLAGE
1238220,MASCARA SEXY PULP BRUN,007,MAQUILLAGE
1238222,MASCARA VOLUME 360 NOIR,007,MAQUILLAGE
1238225,MASCARA VOLUME ELIXIR BLEU,007,MAQUILLAGE
1238227,MASCARA SEXY PULP NOIR,007,MAQUILLAGE
1240468,BLUSH ROSE CANNELLE,007,MAQUILLAGE
1240473,BLUSH ROSE ACAJOU,007,MAQUILLAGE
1240769,SOIN RECUPERATEUR NUIT 50ML,002,SOINS DU VISAGE
1241873,SOIN BRILLANCE TOP COAT,004,CAPILLAIRES
1244039,LINGETTES DEMAQUILLANTES,002,SOINS DU VISAGE
1244448,BAUME ARGAN TRADITION HAMMAM,003,SOINS DU CORPS
1244455,GEL DESINCRUSTANT VISAGE HOMME,002,SOINS DU VISAGE
1244497,GEL NETTOYANT PURE CALMILLE,002,SOINS DU VISAGE
1244540,DEMAQUILLANT TONIQUE 2EN1,002,SOINS DU VISAGE
1245876,CR REGENERATRICE CALENDULA,002,SOINS DU VISAGE
1245882,CREME HYDRATANTE JOUR/NUIT,002,SOINS DU VISAGE
1245883,CREME HYDRATANTE JOUR/NUIT,002,SOINS DU VISAGE
1246415,CREME 0 DEFAUT BEIGE 200,007,MAQUILLAGE
1246417,CREME 0 DEFAUT ROSE 100,007,MAQUILLAGE
1246424,CREME 0 DEFAUT BEIGE 050,007,MAQUILLAGE
1246425,CREME 0 DEFAUT BEIGE 100,007,MAQUILLAGE
1246434,CREME 0 DEFAUT BRUN 500,007,MAQUILLAGE
1246440,CREME 0 DEFAUT BEIGE 300,007,MAQUILLAGE
1246890,VERNIS A ONGLES OR SCINTILLANT,007,MAQUILLAGE
1247195,LINGETTES DEFROISSANTES,002,SOINS DU VISAGE
1248916,SOIN CAPILLAIRE VINAIGRE,004,CAPILLAIRES
1248921,SHAMPOOING 3 EN 1 DEMELAGE,004,CAPILLAIRES
1250354,CREME MAINS HYDRATANTE 75ML,003,SOINS DU CORPS
1250364,CREME ULTRA-NOURRISSANTE MAINS,003,SOINS DU CORPS
1250368,CREME 2EN1 MAINS ONGLES,003,SOINS DU CORPS
1250373,GEL DOUCHE BOIS GAIAC/GENIEVRE,005,HYGIENE
1252956,OMBRE CREME BRONZE TENUE 12H,007,MAQUILLAGE
1254088,BAUME LIQUIDE ROUGE CLAIR 13,007,MAQUILLAGE
1254091,BAUME LIQUIDE ROUGE FONCE 14,007,MAQUILLAGE
1255576,ROUGE A LEVRES MAUVE 40 SATINE,007,MAQUILLAGE
1255583,ROUGE VERTIGE SATINE ROSE 44,007,MAQUILLAGE
1255586,ROUGE A LEVRES NUDE 32 SATINE,007,MAQUILLAGE
1255587,ROUGE VERTIGE SATINE MAUVE 37,007,MAQUILLAGE
1255590,ROUGE A LEVRES MAUVE 42 SATINE,007,MAQUILLAGE
1255591,ROUGE VERTIGE SATINE MAUVE 43,007,MAQUILLAGE
1255592,ROUGE A LEVRES NUDE 31 SATINE,007,MAQUILLAGE
1255593,ROUGE VERTIGE SATINE MAUVE 38,007,MAQUILLAGE
1255594,ROUGE A LEVRES NUDE 30 SATINE,007,MAQUILLAGE
1255597,ROUGE VERTIGE SATINE MAUVE 39,007,MAQUILLAGE
1256173,ROUGE LEVRES NUDE 02 BRILLANT,007,MAQUILLAGE
1256177,ROUGE VERTIGE NUDE 01 BRILLANT,007,MAQUILLAGE
1256180,ROUGE A LEVRES MAUVE 05,007,MAQUILLAGE
1256185,ROUGE LEVRES BRILLANT ROUGE 06,007,MAQUILLAGE
1257418,GRAND ROUGE NUDE 102 SATINE,007,MAQUILLAGE
1257421,ROUGE A LEVRES ROUGE 76 NACRE,007,MAQUILLAGE
1257423,ROUGE A LEVRES ROUGE 77 NACRE,007,MAQUILLAGE
1257432,GRAND ROUGE ROUGE 117 SATINE,007,MAQUILLAGE
1257444,ROUGE VERTIGE BRILLANT ROUGE17,007,MAQUILLAGE
1257446,ROUGE A LEVRES MAUVE 07,007,MAQUILLAGE
1257447,ROUGE LEVRES ROSE 09 BRILLANT,007,MAQUILLAGE
1257448,ROUGE LEVRES ROSE 11 BRILLANT,007,MAQUILLAGE
1257449,ROUGE LEVRES ROSE 12 BRILLANT,007,MAQUILLAGE
1257450,ROUGE VERTIGE BRILLANT ROSE 13,007,MAQUILLAGE
1257451,ROUGE A LEVRES ROUGE TEINTE 14,007,MAQUILLAGE
1257452,ROUGE A LEVRES ROUGE TEINTE 15,007,MAQUILLAGE
1257453,ROUGE VERTIGE ROSE 45 SATINE,007,MAQUILLAGE
1257454,ROUGE VERTIGE SATINE ROSE 46,007,MAQUILLAGE
1257455,ROUGE VERTIGE SATINE ROSE 47,007,MAQUILLAGE
1257456,ROUGE A LEVRES ROSE 48 SATINE,007,MAQUILLAGE
1257457,ROUGE VERTIGE SATINE ROUGE 54,007,MAQUILLAGE
1257458,ROUGE A LEVRES ROUGE TEINTE 55,007,MAQUILLAGE
1257459,ROUGE VERTIGE SATINE ROUGE 56,007,MAQUILLAGE
1257460,ROUGE VERTIGE SATINE ROUGE 57,007,MAQUILLAGE
1257461,ROUGE A LEVRES ROUGE TEINTE 18,007,MAQUILLAGE
1257466,ROUGE A LEVRES NUDE 71 NACRE,007,MAQUILLAGE
1257475,GRAND ROUGE MAUVE 109 SATINE,007,MAQUILLAGE
1257492,GRAND ROUGE MAUVE 107 SATINE,007,MAQUILLAGE
1257497,GRAND ROUGE MAUVE 106 SATINE,007,MAQUILLAGE
1257507,GRAND ROUGE ROSE 111 SATINE,007,MAQUILLAGE
1257527,GRAND ROUGE ROUGE 120 SATINE,007,MAQUILLAGE
1257534,GRAND ROUGE ROSE 112 SATINE,007,MAQUILLAGE
1257539,ROUGE A LEVRES ROSE 74 NACRE,007,MAQUILLAGE
1257544,GRAND ROUGE MAUVE 110 SATINE,007,MAQUILLAGE
1257556,GRAND ROUGE NUDE 103 SATINE,007,MAQUILLAGE
1257562,GRAND ROUGE ROUGE 119 SATINE,007,MAQUILLAGE
1257563,GRAND ROUGE ROUGE 118 SATINE,007,MAQUILLAGE
1257566,GRAND ROUGE NUDE 104 SATINE,007,MAQUILLAGE
1257577,GRAND ROUGE NUDE 101 SATINE,007,MAQUILLAGE
1257580,GRAND ROUGE ROSE 115 SATINE,007,MAQUILLAGE
1257582,ROUGE A LEVRES ROSE 75 NACRE,007,MAQUILLAGE
1257594,GRAND ROUGE ROSE 114 SATINE,007,MAQUILLAGE
1257596,GRAND ROUGE NUDE 105 SATINE,007,MAQUILLAGE
1259904,BASE TEINT TEINTE UNIVERSELLE,007,MAQUILLAGE
1261233,PUR BLEUET DEMAQUILLANT YEUX,002,SOINS DU VISAGE
1261237,BAIN DOUCHE MANDARINE/CEDRE,005,HYGIENE
1261239,BAIN DOUCHE FLEUR DE TIARE,005,HYGIENE
1261261,BAIN DOUCHE PAMPLEMOUSSE THYM,005,HYGIENE
1261264,BAIN SENSUEL FLEUR DE TIARE,005,HYGIENE
1261265,BAIN RELAXANT LOTUS/SAUGE,005,HYGIENE
1261267,BAIN DOUCHE LOTUS SAUGE 200ML,005,HYGIENE
1261289,BAIN DOUCHE PAMPLEMOUSSE THYM,005,HYGIENE
1261290,BAIN DOUCHE MANDARINE CEDRE,005,HYGIENE
1261620,VERNIS A ONGLES BLANC ORCHIDEE,007,MAQUILLAGE
1264710,CRAYON JUMBO FLEUR DE CERISIER,007,MAQUILLAGE
1264711,CRAYON TURQUOISE AGAVE NACRE,007,MAQUILLAGE
1264714,CRAYON BLEU ANEMONE NACRE 06,007,MAQUILLAGE
1264721,CRAYON JUMBO COQUELICOT,007,MAQUILLAGE
1264731,CRAYON JUMBO NOISETIER NACRE,007,MAQUILLAGE
1264733,CRAYON JUMBO JAUNE MIMOSA,007,MAQUILLAGE
1264734,CRAYON JUMBO MOUSSE MAT 08,007,MAQUILLAGE
1264737,LIFTING BUSTE,003,SOINS DU CORPS
1264740,CRAYON JUMBO OUD NACRE,007,MAQUILLAGE
1264741,CRAYON LEVRES ET JOUES OR,007,MAQUILLAGE
1264746,CRAYON JUMBO THE NACRE,007,MAQUILLAGE
1264748,CRAYON JUMBO ARGENT NACRE,007,MAQUILLAGE
1265029,VERNIS A ONGLES ROSE 29,007,MAQUILLAGE
1265551,FEUTRE LINER BLEU PENSEE,007,MAQUILLAGE
1265552,FEUTRE LINER BLEU PARADIS,007,MAQUILLAGE
1266404,COLLECTOR SOIN REGENERANT,002,SOINS DU VISAGE
1266990,DUO POUDRE SOLEIL HALE DORE,007,MAQUILLAGE
1267004,DUO POUDRE SOLEIL HALE MOYEN,007,MAQUILLAGE
1267007,DUO POUDRE SOLEIL HALE BRUN,007,MAQUILLAGE
1269187,LAIT EN SPRAY FPS50+,006,SOLAIRES
1269510,LAIT HYDRATANT APRES SOLEIL,006,SOLAIRES
1269511,SERUM AMINCISSANT FERMETE,003,SOINS DU CORPS
1269543,SOIN ANTI CELLULITE 200ML,003,SOINS DU CORPS
1269705,EAU PARFUM TENDRE JASMIN 50ML,001,PARFUMAGE
1270462,EAU DE PARFUM ACCORD CHIC 50ML,001,PARFUMAGE
1270467,EAU DE PARFUM ACCORD CHIC 30ML,001,PARFUMAGE
1270471,EAU DE PARFUM NEROLI 50ML,001,PARFUMAGE
1270472,EAU DE PARFUM ROSE OUD 50ML,001,PARFUMAGE
1270473,EAU PARFUM VOILE D'AMBRE 50ML,001,PARFUMAGE
1271753,CRAYON KHOL BLEU,007,MAQUILLAGE
1271936,GEL DOUCHE VANILLE BOURBON,005,HYGIENE
1273589,POUDRE ZERO DEFAUT BRUN CLAIR,007,MAQUILLAGE
1273594,POUDRE 0 DEFAUT DORE MOYEN,007,MAQUILLAGE
1273595,POUDRE ZERO DEFAUT BRUN MAT,007,MAQUILLAGE
1273597,POUDRE ZERO DEFAUT ROSE MOYEN,007,MAQUILLAGE
1273622,POUDRE 0 DEFAUT BEIGE MOYEN,007,MAQUILLAGE
1273623,POUDRE ZERO DEFAUT BEIGE CLAIR,007,MAQUILLAGE
1276646,PALETTE COULEUR VEGETALE NUDE,007,MAQUILLAGE
1278120,CREME JOUR ANTI-AGE GLOBAL,002,SOINS DU VISAGE
1278781,CREME MAINS VANILLE 30ML,003,SOINS DU CORPS
1278790,CREME MAINS MANGUE 30ML,003,SOINS DU CORPS
1278791,CREME MAINS RELAXANTE OLIVE,003,SOINS DU CORPS
1278809,CREME MAINS NOIX DE COCO 30ML,003,SOINS DU CORPS
1279386,NETTOYANT DEMAQUILLANT SURGRAS,002,SOINS DU VISAGE
1282261,DUO ENLUMINEUR,007,MAQUILLAGE
1558978,VERNIS COULEUR ROSE POURPRE,007,MAQUILLAGE
1559777,EAU DE PARFUM OUI A L AMOUR,001,PARFUMAGE
1559847,EAU PARFUM OUI A L'AMOUR 30 ML,001,PARFUMAGE
1561005,ROUGE A LEVRES MAT NUDE 151,007,MAQUILLAGE
1561043,ROUGE A LEVRES MAT MAUVE 152,007,MAQUILLAGE
1561085,ROUGE A LEVRES MAT NUDE 150,007,MAQUILLAGE
1561096,ROUGE A LEVRES MAT MAUVE 153,007,MAQUILLAGE
1561126,ROUGE A LEVRES ROUGE 156 MAT,007,MAQUILLAGE
1561163,ROUGE A LEVRES GRAND ROUGE 157,007,MAQUILLAGE
1561168,ROUGE A LEVRES ROSE 154 MAT,007,MAQUILLAGE
1561197,ROUGE A LEVRES ROSE 155 MAT,007,MAQUILLAGE
1562251,FEUTRE LINER VERT FORET,007,MAQUILLAGE
1562259,VERTIGE FEUTRE LINER BRUN CAFE,007,MAQUILLAGE
1562534,CREME NETTOYANTE DEMAQUILLANTE,002,SOINS DU VISAGE
1564019,MASQUE CHEVEUX NUTRI-SOYEUX,004,CAPILLAIRES
1564330,MASQUE CHEVEUX REPARATEUR,004,CAPILLAIRES
1571368,SHAMPOOING BRILLANCE INTENSE,004,CAPILLAIRES
1574144,BAUME REPARATEUR KARITE,003,SOINS DU CORPS
1574277,EXFOLIANT CORPS MANDARINE,003,SOINS DU CORPS
1576177,REPARATION SOIN DE NUIT,004,CAPILLAIRES
1576185,SHAMPOOING NUTRI SOYEUX 300ML,004,CAPILLAIRES
1576514,PALETTE NOEL,007,MAQUILLAGE
1583983,BAUME CORPS NOIX DE COCO,003,SOINS DU CORPS
1598592,SERUM PERFECTEUR ANTI-TACHES,002,SOINS DU VISAGE
1599658,EAU PARFUM NOTES D'AMOUR 50 ML,001,PARFUMAGE
1600061,BAUME KARITE PEAUX EXTRA SECHE,005,HYGIENE
1611250,EAU DE COLOGNE CHEVREFEUILLE,001,PARFUMAGE
1611255,ROUGE LEVRES ELIXIR ROUGE 112,007,MAQUILLAGE
1611257,ROUGE A LEVRES L ELIXIR 105,007,MAQUILLAGE
1611258,ROUGE A LEVRES ELIXIR NUDE 102,007,MAQUILLAGE
1611259,ROUGE A LEVRES ELIXIR ROSE 107,007,MAQUILLAGE
1611260,ROUGE A LEVRES L ELIXIR 106,007,MAQUILLAGE
1611261,EAU DE TOILETTE EVIDENCE 75ML,001,PARFUMAGE
1611262,ROUGE A LEVRES MAUVE 104,007,MAQUILLAGE
1617035,BB CREME SUBLIMATRICE 6 EN 1,002,SOINS DU VISAGE
1617472,MASCARA SOURCILS BRUN,007,MAQUILLAGE
1617487,MASCARA SOURCILS CHATAIN,007,MAQUILLAGE
1617745,LAIT REPARATEUR PEAUX SECHES,003,SOINS DU CORPS
1617773,ROLL ON DEFATIGANT ELIXIR,002,SOINS DU VISAGE
1617777,SOIN RECUPERATEUR NUIT ELIXIR,002,SOINS DU VISAGE
1617779,LAIT REPARATEUR PEAUX SECHES,003,SOINS DU CORPS
1618003,SOIN RESTRUCTURANT NUIT ELIXIR,002,SOINS DU VISAGE
1618027,SOIN RESTRUCTURANT JOUR ELIXIR,002,SOINS DU VISAGE
1618035,BB CREME SUBLIMATRICE MEDIUM,002,SOINS DU VISAGE
1618761,SOIN RADIANCE JOUR RICHE CREME,002,SOINS DU VISAGE
1619278,BAUME MAINS GRAND FROID KARITE,003,SOINS DU CORPS
1619279,BAUME PEAUX EXTRA SECHES,003,SOINS DU CORPS
1620445,EXFOLIANT CORPS AU SUCRE BAIES,003,SOINS DU CORPS
1622805,PURE LIGHT HYDRATANT ROSE 100,007,MAQUILLAGE
1622806,PURE LIGHT HYDRATANT ROSE 200,007,MAQUILLAGE
1622808,STYLO SOURCILS CENDRE,007,MAQUILLAGE
1622809,PURE LIGHT HYDRATANT BEIGE 400,007,MAQUILLAGE
1622810,PURE LIGHT HYDRATANT ROSE 300,007,MAQUILLAGE
1622812,PURE LIGHT HYDRATANT BEIGE 200,007,MAQUILLAGE
1622818,PURE LIGHT HYDRATANT BEIGE 100,007,MAQUILLAGE
1622819,PURE LIGHT HYDRATANT BEIGE 300,007,MAQUILLAGE
1623177,PURE LIGHT HYDRATANT DORE 200,007,MAQUILLAGE
1623186,PURE LIGHT HYDRATANT BRUN 600,007,MAQUILLAGE
1623189,PURE LIGHT HYDRATANT DORE 100,007,MAQUILLAGE
1623204,PURE LIGHT HYDRATANT DORE 300,007,MAQUILLAGE
1623216,PURE LIGHT HYDRATANT BRUN 500,007,MAQUILLAGE
1623630,GEL LAVANT MAINS VANILLE,005,HYGIENE
1623632,LAIT CORPS BAIES MERVEILLES,003,SOINS DU CORPS
1623640,CREME MAINS BAIES MERVEILLES,003,SOINS DU CORPS
1623642,CREME MAINS VANILLE BLANCHE,003,SOINS DU CORPS
1631825,BAIN DOUCHE GRENADE 200ML,005,HYGIENE
1631826,BAIN DOUCHE FLEUR COTON MIMOSA,005,HYGIENE
1631834,BAIN DOUCHE GRENADE 400ML,005,HYGIENE
1631836,BAIN DOUCHE MAGNOLIA THE BLANC,005,HYGIENE
1631838,BAIN DOUCHE COTON MIMOSA 200ML,005,HYGIENE
1632082,GEL DEFATIGANT HYDRATANT,002,SOINS DU VISAGE
1632434,VAPO DE SAC MON EVIDENCE,001,PARFUMAGE
1632462,EAU DE PARFUM MON EVIDENCE,001,PARFUMAGE
1635547,DISSOLVANT 200 ML,007,MAQUILLAGE
1637898,BAIN DOUCHE NOIX DE COCO 400ML,005,HYGIENE
1637910,BAIN DOUCHE NOIX DE COCO 200ML,005,HYGIENE
1638474,STYLO REGARD VERT 03,007,MAQUILLAGE
1638499,STYLO REGARD DORE 10,007,MAQUILLAGE
1638500,STYLO REGARD TURQUOISE 05,007,MAQUILLAGE
1638510,STYLO REGARD BLEU FLASH 02,007,MAQUILLAGE
1638564,STYLO REGARD VIOLET 04,007,MAQUILLAGE
1638572,STYLO REGARD NOIR 01,007,MAQUILLAGE
1641317,ROUGE A LEVRES VERTIGE ROSE 03,007,MAQUILLAGE
1641322,CRAYON LEVRES ORANGE SANGUINE,007,MAQUILLAGE
1641329,ROUGE A LEVRES VERTIGE ROSE 05,007,MAQUILLAGE
1641332,CRAYON LEVRES ECLAT ROUGE VIF,007,MAQUILLAGE
1641335,CRAYON LEVRES ROUGE PROFOND,007,MAQUILLAGE
1641336,ROUGE A LEVRES VERTIGE ROSE 01,007,MAQUILLAGE
1641338,ROUGE A LEVRES VERTIGE ROSE 04,007,MAQUILLAGE
1642836,BAIN DOUCHE MARACUJA 200ML,005,HYGIENE
1643927,EAU DE TOILETTE VANILLE 20 ML,001,PARFUMAGE
1643936,EAU TOILETTE VANILLE BOURBON,001,PARFUMAGE
1645031,EAU PARFUM COMME UNE EVIDENCE,001,PARFUMAGE
1645212,CREME NUIT ANTI AGE,002,SOINS DU VISAGE
1649130,EAU DE TOILETTE MARACUJA,001,PARFUMAGE
1650346,MASCARA SEXY PULP NOIR,007,MAQUILLAGE
1650372,VERNIS A ONGLES CORAIL POP 57,007,MAQUILLAGE
1650799,POUDRE ILLUMINATRICE ROSE,007,MAQUILLAGE
1650915,STICK CORRECTEUR ABRICOT,007,MAQUILLAGE
1650920,VERNIS A ONGLES FUCHSIA,007,MAQUILLAGE
1650923,STICK CORRECTION ANTI CERNES,007,MAQUILLAGE
1650926,STICK CORRECTEUR VIOLET,007,MAQUILLAGE
1650929,VERNIS ONGLES ANEMONE REBELLE,007,MAQUILLAGE
1650930,VERNIS ONGLES ROSE EXPLOSIVE,007,MAQUILLAGE
1650935,STICK CORRECTEUR ANTI-ROUGEURS,007,MAQUILLAGE
1650937,VERNIS A ONGLES CAMELIA,007,MAQUILLAGE
1651606,BLUSH ROSE PECHE,007,MAQUILLAGE
1651610,BLUSH ROSE CAPUCINE,007,MAQUILLAGE
1651611,BLUSH ROSE CAMELIA,007,MAQUILLAGE
1651614,BLUSH ROSE COQUELICOT,007,MAQUILLAGE
1651616,GEL HYDRATATION NON STOP 48H,002,SOINS DU VISAGE
1651623,BLUSH ROSE HORTENSIA,007,MAQUILLAGE
1651626,BLUSH ROSE PIVOINE,007,MAQUILLAGE
1651628,BLUSH ROSE FUCHSIA,007,MAQUILLAGE
1651747,LAIT SUBLIMANT AUTOBRONZANT,006,SOLAIRES
1651948,GEL CREME HYDRATATION 48H,002,SOINS DU VISAGE
1652130,GELEE EXFOLIANTE,002,SOINS DU VISAGE
1652168,CREME HYDRATATION NON STOP 48H,002,SOINS DU VISAGE
1652183,GEL NETTOYANT FRAICHEUR 125ML,002,SOINS DU VISAGE
1652503,EAU DEMAQUILLANTE VEGETAL 2EN1,002,SOINS DU VISAGE
1652577,GEL NETTOYANT ULTRA FRAICHEUR,002,SOINS DU VISAGE
1652590,SOIN LIQUIDE DETOX 50ML,002,SOINS DU VISAGE
1652593,LOTION TONIQUE HYDRATANTE,002,SOINS DU VISAGE
1652821,OMBRE LIFEPROOF TURQUOISE 05,007,MAQUILLAGE
1652824,OMBRE LIFEPROOF BRUN MAT 09,007,MAQUILLAGE
1652829,OMBRE LIFEPROOF BLEU MAT 06,007,MAQUILLAGE
1652832,OMBRE LIFEPROOF PRUNE 07,007,MAQUILLAGE
1652834,OMBRE LIFEPROOF OR 02,007,MAQUILLAGE
1652835,OMBRE LIFEPROOF TAUPE 08,007,MAQUILLAGE
1652840,GRAND SOIN FERMETE INTENSE,002,SOINS DU VISAGE
1652841,OMBRE LIFEPROOF VERT 04,007,MAQUILLAGE
1652858,OMBRE LIFEPROOF GRIS MAT 10,007,MAQUILLAGE
1652863,OMBRE LIFEPROOF NUDE MAT 01,007,MAQUILLAGE
1653106,EAU MICELLAIRE DEMAQUILLANTE,002,SOINS DU VISAGE
1653133,LAIT DEMAQUILLANT HYDRATANT,002,SOINS DU VISAGE
1657586,BRUME CHEVEUX MARACUJA 100ML,001,PARFUMAGE
1657874,SHAMPOOING DOUCHE DES LAGONS,005,HYGIENE
1658293,CONCENTRE ANTI-TACHES,002,SOINS DU VISAGE
1658879,CREME CALMILLE VISAGE/CORPS,002,SOINS DU VISAGE
1659667,SOIN ILLUMINATEUR REGARD,002,SOINS DU VISAGE
1661018,DUO POUDRE SOLEIL HALE DORE,007,MAQUILLAGE
1661356,VERTIGE FEUTRE LINER NOIR 01,007,MAQUILLAGE
1662427,GEL DOUCHE CONCENTRE TIARE,005,HYGIENE
1663156,SHAMPOOING MICELLAIRE DETOX,004,CAPILLAIRES
1663312,DUO ENLUMINEUR UNIVERSELLE,007,MAQUILLAGE
1663314,TOUCHE ILLUMINATRICE MAGNOLIA,007,MAQUILLAGE
1663677,GOMMAGE DETOX 150ML,004,CAPILLAIRES
1663976,BAUME LEVRES KARITE WAX 2,003,SOINS DU CORPS
1663983,BAUME LEVRES KARITE WAX 3,003,SOINS DU CORPS
1663985,BAUME LEVRES KARITE WAX 1,003,SOINS DU CORPS
1664376,SHAMPOOING REFLETS BLONDS,004,CAPILLAIRES
1664645,SHAMPOOING REFLETS BRUNS,004,CAPILLAIRES
1664737,SHAMPOOING REFLETS ARGENTS,004,CAPILLAIRES
1664760,ECO SHAMPOOING LOVE MY PLANET,004,CAPILLAIRES
1665371,PALETTE COULEUR VEGETALE,007,MAQUILLAGE
1665718,GEL DOUCHE ENERGIE GRENADE,005,HYGIENE
1665726,GEL DOUCHE RELAXATION LOTUS,005,HYGIENE
1665841,STYLO SOURCILS CHATAIN 02,007,MAQUILLAGE
1665853,STYLO SOURCILS CENDRE 01,007,MAQUILLAGE
1665870,STYLO SOURCILS BRUN 03,007,MAQUILLAGE
1666694,CREME ANTI AGE PEAUX SECHES,002,SOINS DU VISAGE
1666702,SOIN JOUR TOUTES PEAUX 50ML,002,SOINS DU VISAGE
1666717,CREME CORRECTRICE CONFORT NUIT,002,SOINS DU VISAGE
1666738,BAUME BEURRE CORPS THE DORE,003,SOINS DU CORPS
1667221,MASQUE ANTI RIDES BIENFAISANT,002,SOINS DU VISAGE
1667480,ESSENCE CORRECTIVE ANTI-AGE,002,SOINS DU VISAGE
1667631,BASE LEVRE MATIFIANT UNIVERSEL,007,MAQUILLAGE
1668731,CREME JOUR HYDRAVEGETAL 50ML,002,SOINS DU VISAGE
1668998,MASQUE PURIFIANT,002,SOINS DU VISAGE
1669006,MASQUE SPECIFIQUE RESSOURCANT,002,SOINS DU VISAGE
1669071,GOMMAGE EXFOLIANT,002,SOINS DU VISAGE
1671382,GEL LAVANT MAINS CORIANDRE,005,HYGIENE
1671386,GEL LAVANT MAINS VANILLE,005,HYGIENE
1671389,SAVON THE DORE,005,HYGIENE
1671397,PEELING RIDES ET FERMETE NUIT,002,SOINS DU VISAGE
1671398,SAVON POMME ROUGE,005,HYGIENE
1671400,BAIN DOUCHE ENERGISANT PASSION,005,HYGIENE
1671404,GEL LAVANT MAINS NOIX DE COCO,005,HYGIENE
1671578,EAU DE TOILETTE VAHINES 20ML,001,PARFUMAGE
1672226,FOND TEINT 0 DEFAUT ROSE 100,007,MAQUILLAGE
1672467,FOND TEINT 0 DEFAUT BEIGE 100,007,MAQUILLAGE
1672476,FOND TEINT 0 DEFAUT ROSE 200,007,MAQUILLAGE
1672507,FOND TEINT 0 DEFAUT ROSE 300,007,MAQUILLAGE
1672518,FOND TEINT 0 DEFAUT BEIGE 200,007,MAQUILLAGE
1672929,BAIN DOUCHE VANILLE BOURBON,005,HYGIENE
1672992,BAIN DOUCHE VANILLE BOURBON,005,HYGIENE
1673306,FOND DE TEINT MAT BEIGE 300,007,MAQUILLAGE
1673685,SERUM LIQUIDE ULTRA HYDRATANT,002,SOINS DU VISAGE
1673689,FOND TEINT 0 DEFAUT BRUN 600,007,MAQUILLAGE
1673691,FOND TEINT 0 DEFAUT DORE 200,007,MAQUILLAGE
1673694,FOND TEINT 0 DEFAUT DORE 300,007,MAQUILLAGE
1673696,FOND TEINT 0 DEFAUT DORE 100,007,MAQUILLAGE
1673697,FOND TEINT 0 DEFAUT BRUN 500,007,MAQUILLAGE
1674468,GOMMAGE PURIFIANT SEBOVEGETAL,002,SOINS DU VISAGE
1674476,MASQUE PURETE SEBOVEGETAL 75ML,002,SOINS DU VISAGE
1675567,BAIN DOUCHE THE DORE 200ML,005,HYGIENE
1675608,BAIN DOUCHE THE DORE 400ML,005,HYGIENE
1675617,BAIN DOUCHE POMME ROUGE 400ML,005,HYGIENE
1675628,BAIN DOUCHE POMME ROUGE 200ML,005,HYGIENE
1675673,FOND DE TEINT MAT BEIGE 400,007,MAQUILLAGE
1675676,GEL LAVANT MAINS POMME ROUGE,005,HYGIENE
1675686,EAU DE TOILETTE CUIR VETIVER,001,PARFUMAGE
1675690,CREME MAINS THE DORE,003,SOINS DU CORPS
1675695,LAIT NOURRISSANT 75ML,003,SOINS DU CORPS
1675697,EAU DE TOILETTE HOGGAR 100ML,001,PARFUMAGE
1675700,CREME MAINS POMME ROUGE,003,SOINS DU CORPS
1675717,GEL LAVANT MAINS THE DORE,005,HYGIENE
1675958,PALETTE DE NOEL,007,MAQUILLAGE
1675981,LAIT CORPS POMME ROUGE 200ML,003,SOINS DU CORPS
1675983,EAU DE TOILETTE EVIDENCE HOMME,001,PARFUMAGE
1675995,EAU TOILETTE AMBRE NOIR 100ML,001,PARFUMAGE
1676014,LAIT CORPS PARFUME THE DORE,003,SOINS DU CORPS
1676164,EDT EVIDENCE HOMME 50 ML,001,PARFUMAGE
1676168,EAU DE TOILETTE AMBRE NOIR,001,PARFUMAGE
1676169,EAU DE TOILETTE CUIR VETIVER,001,PARFUMAGE
1676174,EAU DE TOILETTE HOGGAR 50ML,001,PARFUMAGE
1676280,GEL DOUCHE GOMMANT THE DORE,005,HYGIENE
1676282,CREME MAINS OUI A L AMOUR 30ML,003,SOINS DU CORPS
1676283,BAUME NOURRISSANT POMME ROUGE,003,SOINS DU CORPS
1676285,CREME MAINS NOTES D AMOUR,003,SOINS DU CORPS
1676286,BAUME NOURRISSANT THE DORE,003,SOINS DU CORPS
1676299,MASQUE ECLAT SOIN SPECIFIQUE,002,SOINS DU VISAGE
1676306,GEL EXFOLIANT POMME ROUGE,005,HYGIENE
1676721,EAU PARFUM ELIXIR BOIS SENSUEL,001,PARFUMAGE
1676733,EAU DE PARFUM SO ELIXIR 30ML,001,PARFUMAGE
1676955,GOMME SOS BOUTONS,002,SOINS DU VISAGE
1676957,MASQUE AU CHARBON SEBOVEGETAL,002,SOINS DU VISAGE
1676967,EAU DE TOILETTE NUIT VANILLE,001,PARFUMAGE
1676991,VAPO DE SAC NOTE D AMOUR,001,PARFUMAGE
1677003,HUILE DE DOUCHE NUIT VANILLE,005,HYGIENE
1677222,SOIN ANTI-IMPERFECTIONS,002,SOINS DU VISAGE
1677251,SOIN FLOUTEUR PERFECTEUR 30 ML,002,SOINS DU VISAGE
1677254,ESSENCE REEQUILIBRANTE 30ML,002,SOINS DU VISAGE
1678490,BAUME BEURRE CORPS POMME ROUGE,003,SOINS DU CORPS
1678792,GEL DOUCHE MON EVIDENCE,005,HYGIENE
1678824,GEL DOUCHE OUI A L'AMOUR,005,HYGIENE
1680100,CREME MAINS MON EVIDENCE30ML,003,SOINS DU CORPS
1682031,CREME MAINS FRAMBOISE MENTHE,003,SOINS DU CORPS
1682039,CREME MAINS FLEUR DE LOTUS,003,SOINS DU CORPS
1682137,MASCARA FEEL STRONGER NOIR,007,MAQUILLAGE
1682362,DISSOLVANT 100ML,007,MAQUILLAGE
1682379,DISSOLVANT 200 ML,007,MAQUILLAGE
1682953,PARFUM COMME UNE EVIDENCE,001,PARFUMAGE
1683652,SHAMPOOING DOUCHE AMBRE NOIR,005,HYGIENE
1683657,SHAMPOOING DOUCHE HOGGAR,005,HYGIENE
1683664,SHAMPOOING EVIDENCE HOMME,005,HYGIENE
1683673,SHAMPOOING CUIR VETIVER,005,HYGIENE
1684191,SOIN LIQUIDE ELIXIR JEUNESSE,002,SOINS DU VISAGE
1684461,GEL CREME 0 DEFAUT SEBOVEGETAL,002,SOINS DU VISAGE
1685542,GEL CREME HYDRA VEGETAL 50ML,002,SOINS DU VISAGE
1685545,HIGHLIGHTER STICK DORE,007,MAQUILLAGE
1685550,MASQUE FLASH ELIXIR,002,SOINS DU VISAGE
1685551,CREME MAINS ANTI-TACHES 50ML,003,SOINS DU CORPS
1685553,ANTI-RIDES YEUX RICHE CREME,002,SOINS DU VISAGE
1685555,ROLL ON DEFATIGANT,002,SOINS DU VISAGE
1685561,HIGHLIGHTER STICK ROSE,007,MAQUILLAGE
1685567,MASQUE ANTI-RIDES RICHE CREME,002,SOINS DU VISAGE
1685571,SOIN REHAUSSEUR SERUM VEGETAL,002,SOINS DU VISAGE
1685574,SOIN ANTI-TACHES FPS20,002,SOINS DU VISAGE
1686604,ROLL ON ILLUMINATEUR REGARD,002,SOINS DU VISAGE
1686832,EYELINER NOIR BRILLANT,007,MAQUILLAGE
1687860,BRUME CORPS CHEVEUX MANGUE,001,PARFUMAGE
1687875,BRUME CORPS CHEVEUX VANILLE,001,PARFUMAGE
1687883,BRUME CORPS CHEVEUX FRAMBOISE,001,PARFUMAGE
1688624,BRUME CORPS ET CHEVEUX PECHE,001,PARFUMAGE
1688627,BRUME CORPS CHEVEUX NOIX COCO,001,PARFUMAGE
1688647,BRUME CORPS CHEVEUX AMANDE,001,PARFUMAGE
1688834,EMULSION TOUCHER SEC FPS50,006,SOLAIRES
1689264,GOMMAGE PIEDS LISSES,003,SOINS DU CORPS
1689292,BAUME PIEDS REPARATEUR 50ML,003,SOINS DU CORPS
1689902,LAIT CORPS ARGAN PETALE ROSE,003,SOINS DU CORPS
1689911,HUILE DOUCHE ARGAN PETALE ROSE,005,HYGIENE
1689912,CREME MAINS ARGAN ROSE,003,SOINS DU CORPS
1690104,BAIN DOUCHE ARGAN ROSE 400ML,005,HYGIENE
1690107,LAIT CORPS SENSUEL ARGAN ROSE,003,SOINS DU CORPS
1690108,BAIN DOUCHE ARGAN ROSE 200ML,005,HYGIENE
1692062,CREME REGARD ANTI-AGE 15ML,002,SOINS DU VISAGE
1692154,DUO POUDRE SOLEIL HALE DORE,007,MAQUILLAGE
1692184,POUDRE SOLEIL HALE MOYEN,007,MAQUILLAGE
1692303,FARD A PAUPIERES ARGENT DORE,007,MAQUILLAGE
1692312,FARD A PAUPIERES BORDEAUX DORE,007,MAQUILLAGE
1692313,PALETTE COULEUR VEGETALE,007,MAQUILLAGE
1692325,PALETTE COULEUR VEGETALE,007,MAQUILLAGE
1692337,FARD A PAUPIERES ABRICOT DORE,007,MAQUILLAGE
1694881,BAIN DOUCHE PECHE ANIS 200ML,005,HYGIENE
1694899,BAIN DOUCHE PECHE ANIS 400ML,005,HYGIENE
1695477,MASCARA VOLUME NOIR 360?,007,MAQUILLAGE
1696291,CREME DOUCEUR PURE CALMILLE,002,SOINS DU VISAGE
1696411,CREME DE JOUR NUTRITION,004,CAPILLAIRES
1696619,EAU DE PARFUM NOUVEAU GENRE,001,PARFUMAGE
1696623,HUILE CORPS ARGAN PETALES ROSE,003,SOINS DU CORPS
1696631,BAUME LEVRES PREMIERS FLOCONS,003,SOINS DU CORPS
1696642,BAUME LEVRES COEUR DES SAPINS,003,SOINS DU CORPS
1696647,EAU DE PARFUM SABLE FAUVE 30ML,001,PARFUMAGE
1696659,EAU PARFUM SABLE FAUVE 100ML,001,PARFUMAGE
1696693,EAU DE PARFUM SEL D AZUR 30 ML,001,PARFUMAGE
1696705,LAIT CORPS AU COEUR DES SAPINS,003,SOINS DU CORPS
1696710,EAU PARFUM PLEIN SOLEIL 100ML,001,PARFUMAGE
1696717,LAIT CORPS PREMIERS FLOCONS,003,SOINS DU CORPS
1696727,EAU DE PARFUM AUTOUR DE MINUIT,001,PARFUMAGE
1696729,GEL MAINS PREMIERS FLOCONS,005,HYGIENE
1696737,EAU FRAICHE MUGUET 100ML,001,PARFUMAGE
1696742,EAU FRAICHE CHEVREFEUILLE,001,PARFUMAGE
1696752,BAIN DOUCHE PREMIERS FLOCONS,005,HYGIENE
1696771,EAU DE PARFUM AUTOUR DE MINUIT,001,PARFUMAGE
1696792,BAIN DOUCHE COEUR DES SAPINS,005,HYGIENE
1696814,EAU FRAICHE VERVEINE,001,PARFUMAGE
1696830,EAU FRAICHE CERISIERS 100ML,001,PARFUMAGE
1696834,EAU DE PARFUM NOUVEAU GENRE,001,PARFUMAGE
1696843,EAU PARFUM CUIR DE NUIT 30 ML,001,PARFUMAGE
1696845,EAU DE PARFUM SEL D AZUR 100ML,001,PARFUMAGE
1696850,GEL MAINS AU COEUR DES SAPINS,005,HYGIENE
1696854,EAU FRAICHE ROSE,001,PARFUMAGE
1696856,EAU PARFUM PLEIN SOLEIL 30 ML,001,PARFUMAGE
1696857,EAU PARFUM CUIR DE NUIT 100ML,001,PARFUMAGE
1696862,BAIN DOUCHE PREMIERS FLOCONS,005,HYGIENE
1696874,EAU FRAICHE THE VERT,001,PARFUMAGE
1698354,LAIT DEMELANT,004,CAPILLAIRES
1698355,APRES SHAMPOOING NUTRITION,004,CAPILLAIRES
1698359,SOIN ANTI-AGE ENERGIE HOMME,002,SOINS DU VISAGE
1698366,CREME HYDRATANTE ANTI ROUGEURS,002,SOINS DU VISAGE
1698370,BRILLANCE APRES SHAMPOOING,004,CAPILLAIRES
1698373,APRES SHAMPOOING POLLUTION,004,CAPILLAIRES
1698382,GEL DEFATIGANT ENERGIE HOMME,002,SOINS DU VISAGE
1698434,APRES SHAMPOOING VOLUME,004,CAPILLAIRES
1698439,APRES SHAMPOOING REPARATION,004,CAPILLAIRES
1698623,PALETTE REGARD,007,MAQUILLAGE
1698746,CREME MAINS COEUR DES SAPINS,003,SOINS DU CORPS
1699867,EAU MICELLAIRE PURIFIANTE,002,SOINS DU VISAGE
1699971,GEL NETTOYANT PURIFIANT,002,SOINS DU VISAGE
1699980,EAU MICELLAIRE PURIFIANTE,002,SOINS DU VISAGE
1699983,LOTION CLARIFIANTE,002,SOINS DU VISAGE
1699986,3 EN 1 GEL DESINCRUSTANT,002,SOINS DU VISAGE
1700009,GEL NETTOYANT PURIFIANT 125ML,002,SOINS DU VISAGE
1700134,GEL CREME HYDRATATION VEGETAL,002,SOINS DU VISAGE
1700141,CREME RICHE HYDRA VEGETAL 50ML,002,SOINS DU VISAGE
1700147,LAIT HYDRATANT 3EN1 MONOI,006,SOLAIRES
1700150,0 DEFAUT TEINT CREME ROSE 200,007,MAQUILLAGE
1700151,0 DEFAUT TEINT CREME BEIGE 100,007,MAQUILLAGE
1700152,ROLL ON LINER NOIR,007,MAQUILLAGE
1700154,ZERO DEFAUT CREAM BEIGE 200,007,MAQUILLAGE
1700180,HUILE MOUSSANTE DEMAQUILLANTE,002,SOINS DU VISAGE
1700182,0 DEFAUT TEINT CREME BEIGE 400,007,MAQUILLAGE
1700183,EAU DE TOILETTE CLEA 75ML,001,PARFUMAGE
1700188,0 DEFAUT TEINT CREME BEIGE 300,007,MAQUILLAGE
1700192,BAUME LEVRES REPULPANT,003,SOINS DU CORPS
1700206,EDT CLEA COLLECTOR 60 ANS,001,PARFUMAGE
1700221,ROLL ON LINER DOREE,007,MAQUILLAGE
1700228,CREME MAINS HYDRATANTE,003,SOINS DU CORPS
1700232,0 DEFAUT TEINT CREME ROSE 300,007,MAQUILLAGE
1700445,REPARATION MASQUE CHEVEUX,004,CAPILLAIRES
1700522,MASQUE NUTRI 200ML,004,CAPILLAIRES
1700530,MASQUE SOIN VEGETAL CAPILAIRE,004,CAPILLAIRES
1702215,CRAYON LEVRES ET JOUES ROSE,007,MAQUILLAGE
1702218,SHAMPOOING REFLETS BRUNS,004,CAPILLAIRES
1702225,CRAYON LEVRES JOUES CORAIL,007,MAQUILLAGE
1702239,SAVON AU COEUR DES SAPINS,005,HYGIENE
1702262,CRAYON LEVRES JOUES FRAMBOISE,007,MAQUILLAGE
1702274,CREME MAINS PREMIERS FLOCONS,003,SOINS DU CORPS
1702275,SHAMPOOING I LOVE MY PLANET,004,CAPILLAIRES
1702286,TAILLE CRAYON BIGGY,013,ACCESSOIRES MARKETING
1702307,CRAYON LEVRES ET JOUES ROUGE,007,MAQUILLAGE
1702350,CRAYON LEVRES JOUES ROUGE VIF,007,MAQUILLAGE
1702839,SHAMPOOING ANTI POLLUTION,004,CAPILLAIRES
1702843,GEL DOUCHE ANIMATION ETE 2019,005,HYGIENE
1702861,EAU DE TOILETTE ETE 2019,001,PARFUMAGE
1702862,BRUME CHEVEUX PARFUME ETE 2019,001,PARFUMAGE
1702867,SOIN RESCULPANT NUIT,002,SOINS DU VISAGE
1702872,VINAIGRE DE RINCAGE PURETE,004,CAPILLAIRES
1702874,SOIN RESCULPTANT JOUR 50ML,002,SOINS DU VISAGE
1702877,SHAMPOOING REPARATION,004,CAPILLAIRES
1702878,GRAND SOIN RICHE CREME 75ML,002,SOINS DU VISAGE
1702879,SHAMPOOING PURETE,004,CAPILLAIRES
1702889,SOIN REPULPANT NUIT 50ML,002,SOINS DU VISAGE
1702890,SERUM VEGETAL RIDES FERMETE,002,SOINS DU VISAGE
1702908,SHAMPOOING PULPES D ACAI 300ML,004,CAPILLAIRES
1702909,ANTI-RIDES JOUR AUX 30 HUILES,002,SOINS DU VISAGE
1702913,CREME REGENERATRICE CALENDULA,002,SOINS DU VISAGE
1702915,GOMMAGE POLLUTION SEL MARIN,004,CAPILLAIRES
1702919,HUILE REPARATION CHEVEUX,004,CAPILLAIRES
1702936,SHAMPOOING BRILLANCE ECOLABEL,004,CAPILLAIRES
1702938,SOIN RECUPERATEUR NUIT,002,SOINS DU VISAGE
1702942,PURETE MASQUE PRE-WASH,004,CAPILLAIRES
1702945,SOIN RESTRUCTURANT JOUR,002,SOINS DU VISAGE
1702951,REPARATION CHEVEUX ANTI-CASSE,004,CAPILLAIRES
1702968,COLLECTOR OUI A L'AMOUR,001,PARFUMAGE
1702980,LOW SHAMPOO CREME LAVANTE,004,CAPILLAIRES
1702985,SHAMPOOING ANTIPELLICULAIRE,004,CAPILLAIRES
1702989,BRILLANCE VINAIGRE DE RINCAGE,004,CAPILLAIRES
1702998,SOIN LISSANT JOUR RIDES ECLAT,002,SOINS DU VISAGE
1703000,SHAMPOOING NUTRITION 300ML,004,CAPILLAIRES
1703002,HUILE SECHE CORPS,003,SOINS DU CORPS
1703006,DOUCEUR SHAMPOOING,004,CAPILLAIRES
1703018,SOIN RESTRUCTURANT NUIT ELIXIR,002,SOINS DU VISAGE
1703033,SOIN RECUPERATEUR NUIT,002,SOINS DU VISAGE
1703034,CREME ANTI-RIDES NUIT 50ML,002,SOINS DU VISAGE
1703035,COLLECTOR PARFUM EVIDENCE,001,PARFUMAGE
1703041,SHAMPOOING ANTI-CHUTE 300ML,004,CAPILLAIRES
1703047,BRILLANCE SHAMPOOING,004,CAPILLAIRES
1703048,SOIN RESTRUCTURANT JOUR ELIXIR,002,SOINS DU VISAGE
1703057,SHAMPOOING VOLUME 300ML,004,CAPILLAIRES
1703932,ROUGE A LEVRES MARBRE ROSE,007,MAQUILLAGE
1703933,ROUGE A LEVRES MARBRE CORAIL,007,MAQUILLAGE
1703987,ANTI-CHUTE CURE STIMULANTE,004,CAPILLAIRES
1704345,SOIN REPULPANT JOUR,002,SOINS DU VISAGE
1704816,CREME HYDRATANTE PURE CALMILLE,002,SOINS DU VISAGE
1704934,CREME PIEDS SECS ET TRES SECS,003,SOINS DU CORPS
1704943,BAUME PIEDS ET TALONS ABIMES,003,SOINS DU CORPS
1704950,GEL EXFOLIANT PIEDS RUGUEUX,003,SOINS DU CORPS
1704951,GEL GLACE PIEDS ECHAUFFES,003,SOINS DU CORPS
1705871,MASCARA VOLUME 360 NOIR,007,MAQUILLAGE
1706249,0 DEFAUT TEINT CREME DORE 300,007,MAQUILLAGE
1706253,0 DEFAUT TEINT CREME BEIGE 200,007,MAQUILLAGE
1706254,0 DEFAUT TEINT CREME BRUN 500,007,MAQUILLAGE
1706263,0 DEFAUT TEINT CREME BEIGE 100,007,MAQUILLAGE
1706265,0 DEFAUT TEINT CREME BEIGE 400,007,MAQUILLAGE
1706282,0 DEFAUT TEINT CREME ROSE 200,007,MAQUILLAGE
1706296,0 DEFAUT TEINT CREME ROSE 100,007,MAQUILLAGE
1706304,0 DEFAUT TEINT CREME ROSE 300,007,MAQUILLAGE
1706305,0 DEFAUT TEINT CREME BEIGE 050,007,MAQUILLAGE
1706306,0 DEFAUT TEINT CREME ROSE 400,007,MAQUILLAGE
1706813,GEL CREME ZERO DEFAUT,002,SOINS DU VISAGE
1708704,BAIN DOUCHE COEUR DES SAPINS,005,HYGIENE
1708712,SAVON PREMIERS FLOCONS,005,HYGIENE
1710340,POUDRE LIBRE PURE LIGHT BEIGE,007,MAQUILLAGE
1710343,POUDRE LIBRE PURE LIGHT ROSE,007,MAQUILLAGE
1710346,POUDRE LIBRE PURE LIGHT DORE,007,MAQUILLAGE
1710361,GRAND SOIN FERMETE INTENSE,002,SOINS DU VISAGE
1710995,LOTION POUDREE MATIFIANTE,002,SOINS DU VISAGE
1712689,GEL DOUCHE FRAMBOISE MENTHE,005,HYGIENE
1714057,SOIN REPULPANT JOUR,002,SOINS DU VISAGE
1714186,HIGHLIGHTER,007,MAQUILLAGE
1714201,PALETTE YEUX ET TEINT,007,MAQUILLAGE
1714260,BAUME LEVRES/JOUES COLORE ROSE,007,MAQUILLAGE
1714532,GRANDE PALETTE,007,MAQUILLAGE
1714571,PALETTE SMOKY YEUX,007,MAQUILLAGE
1714593,PALETTE SMOKY YEUX NOIR,007,MAQUILLAGE
1718047,BOMBE BAIN PREMIERS FLOCONS,005,HYGIENE
1718083,BOMBE DE BAIN COEUR DES SAPINS,005,HYGIENE
1718785,SHAMPOOING REFLETS DORES,004,CAPILLAIRES
1718786,SHAMPOOING REFLETS ARGENTES,004,CAPILLAIRES
1720402,EYELINER NOIR MAT,007,MAQUILLAGE
1725132,CREME 2EN1 MAINS ET ONGLES,003,SOINS DU CORPS
1725134,TOUCHE ILLUMINATRICE TEINT,007,MAQUILLAGE
1725138,CREME MAINS NOURRISSANTE,003,SOINS DU CORPS
1725144,BAUME MAINS GRAND FROID,003,SOINS DU CORPS
1725769,LAIT APAISANT HAMAMELIS,003,SOINS DU CORPS
1725803,LOW SHOWER 200ML,005,HYGIENE
1726497,SPRAY TEXTURISANT,004,CAPILLAIRES
1726539,DOUCHE DOUCEUR HAMAMELIS 400ML,005,HYGIENE
1727088,EAU PARFUM COMME UNE EVIDENCE,001,PARFUMAGE
1727330,CORRECTEUR 0DEFAUT BEIGE MOYEN,007,MAQUILLAGE
1727331,CORRECTEUR 0DEFAUT BEIGE CLAIR,007,MAQUILLAGE
1727334,CORRECTEUR 0 DEFAUT DORE MOYEN,007,MAQUILLAGE
1727337,CORRECTEUR 0 DEFAUT BRUN MAT,007,MAQUILLAGE
1727339,CORRECTEUR 0 DEFAUT ROSE CLAIR,007,MAQUILLAGE
1727340,CORRECTEUR 0 DEFAUT BEIGE MAT,007,MAQUILLAGE
1727341,CORRECTEUR 0 DEFAUT BRUN CLAIR,007,MAQUILLAGE
1727343,CORRECTEUR 0 DEFAUT ROSE MOYEN,007,MAQUILLAGE
1727695,HUILE DOUCHE PREMIERS FLOCONS,005,HYGIENE
1727696,HUILE DOUCHE COEUR DES SAPINS,005,HYGIENE
1727699,MASCARA VOLUME WATERPROOF NOIR,007,MAQUILLAGE
1727703,MASCARA LONGUEUR NOIR,007,MAQUILLAGE
1741675,LAIT REHYDRATANT 390 ML,003,SOINS DU CORPS
